<?xml version="1.0" encoding="UTF-8" standalone="no"?>
<!-- Created with Inkscape (http://www.inkscape.org/) -->

<svg
   xmlns:dc="http://purl.org/dc/elements/1.1/"
   xmlns:cc="http://creativecommons.org/ns#"
   xmlns:rdf="http://www.w3.org/1999/02/22-rdf-syntax-ns#"
   xmlns:svg="http://www.w3.org/2000/svg"
   xmlns="http://www.w3.org/2000/svg"
   xmlns:sodipodi="http://sodipodi.sourceforge.net/DTD/sodipodi-0.dtd"
   xmlns:inkscape="http://www.inkscape.org/namespaces/inkscape"
   width="744.09448819"
   height="1052.3622047"
   id="svg2"
   version="1.1"
   inkscape:version="0.48.4 r9939"
   sodipodi:docname="constraint-example.eps">
  <defs
     id="defs4" />
  <sodipodi:namedview
     id="base"
     pagecolor="#ffffff"
     bordercolor="#666666"
     borderopacity="1.0"
     inkscape:pageopacity="0.0"
     inkscape:pageshadow="2"
     inkscape:zoom="2"
     inkscape:cx="342.01621"
     inkscape:cy="881.29248"
     inkscape:document-units="px"
     inkscape:current-layer="layer1"
     showgrid="false"
     inkscape:window-width="1920"
     inkscape:window-height="1014"
     inkscape:window-x="0"
     inkscape:window-y="27"
     inkscape:window-maximized="1"
     inkscape:snap-bbox="false"
     inkscape:bbox-nodes="false"
     inkscape:snap-bbox-edge-midpoints="false"
     inkscape:bbox-paths="true"
     inkscape:snap-global="false" />
  <metadata
     id="metadata7">
    <rdf:RDF>
      <cc:Work
         rdf:about="">
        <dc:format>image/svg+xml</dc:format>
        <dc:type
           rdf:resource="http://purl.org/dc/dcmitype/StillImage" />
        <dc:title></dc:title>
      </cc:Work>
    </rdf:RDF>
  </metadata>
  <g
     inkscape:label="Layer 1"
     inkscape:groupmode="layer"
     id="layer1">
    <text
       xml:space="preserve"
       style="font-size:40px;font-style:normal;font-weight:normal;line-height:125%;letter-spacing:0px;word-spacing:0px;fill:#000000;fill-opacity:1;stroke:none;font-family:Sans"
       x="296.85272"
       y="229.8653"
       id="text3761"
       sodipodi:linespacing="125%"><tspan
         sodipodi:role="line"
         id="tspan3763"
         x="296.85272"
         y="229.8653">1.3</tspan></text>
    <text
       xml:space="preserve"
       style="font-size:40px;font-style:normal;font-weight:normal;line-height:125%;letter-spacing:0px;word-spacing:0px;fill:#000000;fill-opacity:1;stroke:none;font-family:Sans"
       x="165.57462"
       y="230.1485"
       id="text3761-0"
       sodipodi:linespacing="125%"><tspan
         sodipodi:role="line"
         id="tspan3763-8"
         x="165.57462"
         y="230.1485">2.1</tspan></text>
    <text
       xml:space="preserve"
       style="font-size:40px;font-style:normal;font-weight:normal;line-height:125%;letter-spacing:0px;word-spacing:0px;fill:#000000;fill-opacity:1;stroke:none;font-family:Sans"
       x="429.52625"
       y="229.87006"
       id="text3761-9"
       sodipodi:linespacing="125%"><tspan
         sodipodi:role="line"
         id="tspan3763-1"
         x="429.52625"
         y="229.87006">0.4</tspan></text>
    <text
       xml:space="preserve"
       style="font-size:40px;font-style:normal;font-weight:normal;line-height:125%;letter-spacing:0px;word-spacing:0px;fill:#000000;fill-opacity:1;stroke:none;font-family:Sans"
       x="231.26662"
       y="229.8653"
       id="text3761-4"
       sodipodi:linespacing="125%"><tspan
         sodipodi:role="line"
         id="tspan3763-6"
         x="231.26662"
         y="229.8653">2.9</tspan></text>
    <text
       xml:space="preserve"
       style="font-size:40px;font-style:normal;font-weight:normal;line-height:125%;letter-spacing:0px;word-spacing:0px;fill:#000000;fill-opacity:1;stroke:none;font-family:Sans"
       x="363.80682"
       y="229.8653"
       id="text3761-07"
       sodipodi:linespacing="125%"><tspan
         sodipodi:role="line"
         id="tspan3763-3"
         x="363.80682"
         y="229.8653">3.5</tspan></text>
    <text
       xml:space="preserve"
       style="font-size:14px;font-style:normal;font-weight:normal;line-height:125%;letter-spacing:0px;word-spacing:0px;fill:#000000;fill-opacity:1;stroke:none;font-family:Sans"
       x="112.33805"
       y="86.190399"
       id="text3924"
       sodipodi:linespacing="125%"><tspan
         sodipodi:role="line"
         id="tspan3926"
         x="112.33805"
         y="86.190399" /></text>
    <rect
       style="fill:none;stroke:#000000;stroke-width:0.61920416;stroke-opacity:1"
       id="rect2991-1-4"
       width="65.520142"
       height="65.520142"
       x="164.25986"
       y="60.344391" />
    <rect
       style="fill:none;stroke:#000000;stroke-width:0.61920416;stroke-opacity:1"
       id="rect2991-6-4"
       width="65.520142"
       height="65.520142"
       x="230.39133"
       y="60.344391" />
    <rect
       style="fill:none;stroke:#000000;stroke-width:0.61920416;stroke-opacity:1"
       id="rect2991-6-7"
       width="65.520142"
       height="65.520142"
       x="296.51456"
       y="60.344391" />
    <rect
       style="fill:none;stroke:#000000;stroke-width:0.61920416;stroke-opacity:1"
       id="rect2991-6-73"
       width="65.520142"
       height="65.520142"
       x="362.64832"
       y="60.344391" />
    <rect
       style="fill:none;stroke:#000000;stroke-width:0.61920416;stroke-opacity:1"
       id="rect2991-6-3"
       width="65.520142"
       height="65.520142"
       x="428.78766"
       y="60.349155" />
    <rect
       style="fill:none;stroke:#000000;stroke-width:0.61920416;stroke-opacity:1"
       id="rect2991-1-4-4"
       width="65.520142"
       height="65.520142"
       x="164.25986"
       y="182.54468" />
    <rect
       style="fill:none;stroke:#000000;stroke-width:0.61920416;stroke-opacity:1"
       id="rect2991-6-4-5"
       width="65.520142"
       height="65.520142"
       x="230.39131"
       y="182.54468" />
    <rect
       style="fill:none;stroke:#000000;stroke-width:0.61920416;stroke-opacity:1"
       id="rect2991-6-7-9"
       width="65.520142"
       height="65.520142"
       x="296.51453"
       y="182.54468" />
    <rect
       style="fill:none;stroke:#000000;stroke-width:0.61920416;stroke-opacity:1"
       id="rect2991-6-73-5"
       width="65.520142"
       height="65.520142"
       x="362.64832"
       y="182.54468" />
    <rect
       style="fill:none;stroke:#000000;stroke-width:0.61920416;stroke-opacity:1"
       id="rect2991-6-3-3"
       width="65.520142"
       height="65.520142"
       x="428.78766"
       y="182.54944" />
    <text
       xml:space="preserve"
       style="font-size:36px;font-style:normal;font-variant:normal;font-weight:normal;font-stretch:normal;line-height:125%;letter-spacing:0px;word-spacing:0px;fill:#000000;fill-opacity:1;stroke:none;font-family:URW Bookman L;-inkscape-font-specification:URW Bookman L"
       x="101.46983"
       y="105.36485"
       id="text4062"
       sodipodi:linespacing="125%"><tspan
         sodipodi:role="line"
         id="tspan4064"
         x="101.46983"
         y="105.36485">OP</tspan></text>
    <text
       xml:space="preserve"
       style="font-size:36px;font-style:normal;font-variant:normal;font-weight:normal;font-stretch:normal;line-height:125%;letter-spacing:0px;word-spacing:0px;fill:#000000;fill-opacity:1;stroke:none;font-family:URW Bookman L;-inkscape-font-specification:URW Bookman L"
       x="34.77927"
       y="228.05115"
       id="text4062-6"
       sodipodi:linespacing="125%"><tspan
         sodipodi:role="line"
         id="tspan4064-2"
         x="34.77927"
         y="228.05115">Values</tspan></text>
    <text
       xml:space="preserve"
       style="font-size:40px;font-style:normal;font-weight:normal;line-height:125%;letter-spacing:0px;word-spacing:0px;fill:#000000;fill-opacity:1;stroke:none;font-family:Sans"
       x="184.37344"
       y="107.66501"
       id="text3761-07-6"
       sodipodi:linespacing="125%"><tspan
         sodipodi:role="line"
         id="tspan3763-3-2"
         x="184.37344"
         y="107.66501">3</tspan></text>
    <text
       xml:space="preserve"
       style="font-size:40px;font-style:normal;font-weight:normal;line-height:125%;letter-spacing:0px;word-spacing:0px;fill:#000000;fill-opacity:1;stroke:none;font-family:Sans"
       x="250.07523"
       y="107.68454"
       id="text3761-07-6-1"
       sodipodi:linespacing="125%"><tspan
         sodipodi:role="line"
         id="tspan3763-3-2-9"
         x="250.07523"
         y="107.68454">1</tspan></text>
    <text
       xml:space="preserve"
       style="font-size:40px;font-style:normal;font-weight:normal;line-height:125%;letter-spacing:0px;word-spacing:0px;fill:#000000;fill-opacity:1;stroke:none;font-family:Sans"
       x="316.55978"
       y="107.66501"
       id="text3761-07-6-3"
       sodipodi:linespacing="125%"><tspan
         sodipodi:role="line"
         id="tspan3763-3-2-94"
         x="316.55978"
         y="107.66501">0</tspan></text>
    <text
       xml:space="preserve"
       style="font-size:40px;font-style:normal;font-weight:normal;line-height:125%;letter-spacing:0px;word-spacing:0px;fill:#000000;fill-opacity:1;stroke:none;font-family:Sans"
       x="383.22089"
       y="107.94821"
       id="text3761-07-6-5"
       sodipodi:linespacing="125%"><tspan
         sodipodi:role="line"
         id="tspan3763-3-2-96"
         x="383.22089"
         y="107.94821">2</tspan></text>
    <text
       xml:space="preserve"
       style="font-size:40px;font-style:normal;font-weight:normal;line-height:125%;letter-spacing:0px;word-spacing:0px;fill:#000000;fill-opacity:1;stroke:none;font-family:Sans"
       x="448.9696"
       y="107.6893"
       id="text3761-07-6-4"
       sodipodi:linespacing="125%"><tspan
         sodipodi:role="line"
         id="tspan3763-3-2-4"
         x="448.9696"
         y="107.6893">4</tspan></text>
    <g
       id="g3928"
       transform="translate(125.68043,-76.78174)">
      <path
         transform="translate(11.943988,-8.7158831)"
         inkscape:transform-center-y="-4.508895"
         inkscape:transform-center-x="0.099221728"
         d="m 207.56715,231.45512 -15.91694,-0.17186 -15.91693,-0.17186 8.1073,-13.69854 8.1073,-13.69854 7.80963,13.8704 z"
         inkscape:randomized="0"
         inkscape:rounded="0"
         inkscape:flatsided="false"
         sodipodi:arg2="1.581593"
         sodipodi:arg1="0.53439548"
         sodipodi:r2="9.1901827"
         sodipodi:r1="18.380365"
         sodipodi:cy="222.09361"
         sodipodi:cx="191.74944"
         sodipodi:sides="3"
         id="path3903"
         style="fill:#958bff;fill-opacity:1;stroke:none"
         sodipodi:type="star" />
      <rect
         y="221.12518"
         x="200.04329"
         height="25.502028"
         width="7.1018305"
         id="rect3922"
         style="fill:#958bff;fill-opacity:1;stroke:none" />
    </g>
  </g>
</svg>
