<?xml version="1.0" encoding="UTF-8" standalone="no"?>
<!-- Created with Inkscape (http://www.inkscape.org/) -->

<svg
   xmlns:osb="http://www.openswatchbook.org/uri/2009/osb"
   xmlns:dc="http://purl.org/dc/elements/1.1/"
   xmlns:cc="http://creativecommons.org/ns#"
   xmlns:rdf="http://www.w3.org/1999/02/22-rdf-syntax-ns#"
   xmlns:svg="http://www.w3.org/2000/svg"
   xmlns="http://www.w3.org/2000/svg"
   xmlns:xlink="http://www.w3.org/1999/xlink"
   xmlns:sodipodi="http://sodipodi.sourceforge.net/DTD/sodipodi-0.dtd"
   xmlns:inkscape="http://www.inkscape.org/namespaces/inkscape"
   width="744.09448819"
   height="1052.3622047"
   id="svg2"
   version="1.1"
   inkscape:version="0.48.4 r9939"
   sodipodi:docname="normal-workflow.svg">
  <defs
     id="defs4">
    <linearGradient
       id="linearGradient3780">
      <stop
         style="stop-color:#000080;stop-opacity:1;"
         offset="0"
         id="stop3782" />
      <stop
         style="stop-color:#000080;stop-opacity:0;"
         offset="1"
         id="stop3784" />
    </linearGradient>
    <linearGradient
       id="linearGradient3774"
       osb:paint="solid">
      <stop
         style="stop-color:#000000;stop-opacity:1;"
         offset="0"
         id="stop3776" />
    </linearGradient>
    <linearGradient
       id="linearGradient3760">
      <stop
         id="stop3768"
         offset="0"
         style="stop-color:#86a6ee;stop-opacity:0.49803922;" />
      <stop
         style="stop-color:#5486e1;stop-opacity:0;"
         offset="1"
         id="stop3764" />
    </linearGradient>
    <linearGradient
       inkscape:collect="always"
       xlink:href="#linearGradient3760"
       id="linearGradient3794"
       x1="81.428574"
       y1="114.1479"
       x2="366.42856"
       y2="114.1479"
       gradientUnits="userSpaceOnUse"
       gradientTransform="matrix(1.1708767,0,0,0.64877557,-13.97846,48.305818)" />
    <linearGradient
       inkscape:collect="always"
       xlink:href="#linearGradient3760-1"
       id="linearGradient3794-8"
       x1="81.428574"
       y1="114.1479"
       x2="366.42856"
       y2="114.1479"
       gradientUnits="userSpaceOnUse"
       gradientTransform="matrix(1.1712149,0,0,0.51305579,-14.054199,57.01223)" />
    <linearGradient
       id="linearGradient3760-1">
      <stop
         id="stop3768-8"
         offset="0"
         style="stop-color:#86a6ee;stop-opacity:0.49803922;" />
      <stop
         style="stop-color:#5486e1;stop-opacity:0;"
         offset="1"
         id="stop3764-6" />
    </linearGradient>
    <linearGradient
       y2="114.1479"
       x2="366.42856"
       y1="114.1479"
       x1="81.428574"
       gradientTransform="matrix(1.1712149,0,0,0.51305579,-14.054205,167.36937)"
       gradientUnits="userSpaceOnUse"
       id="linearGradient3858"
       xlink:href="#linearGradient3760-1"
       inkscape:collect="always" />
  </defs>
  <sodipodi:namedview
     id="base"
     pagecolor="#ffffff"
     bordercolor="#666666"
     borderopacity="1.0"
     inkscape:pageopacity="0.0"
     inkscape:pageshadow="2"
     inkscape:zoom="1.4"
     inkscape:cx="317.73882"
     inkscape:cy="822.91477"
     inkscape:document-units="px"
     inkscape:current-layer="layer1"
     showgrid="false"
     inkscape:window-width="1920"
     inkscape:window-height="1014"
     inkscape:window-x="0"
     inkscape:window-y="27"
     inkscape:window-maximized="1" />
  <metadata
     id="metadata7">
    <rdf:RDF>
      <cc:Work
         rdf:about="">
        <dc:format>image/svg+xml</dc:format>
        <dc:type
           rdf:resource="http://purl.org/dc/dcmitype/StillImage" />
        <dc:title />
      </cc:Work>
    </rdf:RDF>
  </metadata>
  <g
     inkscape:label="Layer 1"
     inkscape:groupmode="layer"
     id="layer1">
    <g
       id="g3822"
       transform="translate(15.778302,11.857143)">
      <rect
         y="143.5952"
         x="227.07472"
         height="16.500582"
         width="10.722537"
         id="rect3804"
         style="fill:#abb3e6;fill-opacity:1;stroke:none" />
      <path
         transform="matrix(0.47583888,0,0,0.47583888,137.94798,75.986103)"
         inkscape:transform-center-y="10.38942"
         d="m 234.56143,172.29764 -17.995,31.16826 -17.995,31.16826 -17.99501,-31.16826 -17.995,-31.16826 35.99001,0 z"
         inkscape:randomized="0"
         inkscape:rounded="0"
         inkscape:flatsided="false"
         sodipodi:arg2="0.52359878"
         sodipodi:arg1="-0.52359878"
         sodipodi:r2="20.778841"
         sodipodi:r1="41.557682"
         sodipodi:cy="193.07648"
         sodipodi:cx="198.57143"
         sodipodi:sides="3"
         id="path3814"
         style="fill:#abb3e6;fill-opacity:1;stroke:none"
         sodipodi:type="star" />
    </g>
    <rect
       style="fill:url(#linearGradient3794);fill-opacity:1;stroke:#00004d;stroke-width:0.87157112;stroke-miterlimit:4;stroke-opacity:1;stroke-dasharray:none;stroke-dashoffset:0"
       id="rect2990"
       width="333.69986"
       height="64.414146"
       x="81.364357"
       y="90.155113"
       rx="11.708766"
       ry="6.4877558" />
    <text
       xml:space="preserve"
       style="font-size:14px;font-style:normal;font-weight:normal;line-height:125%;letter-spacing:0px;word-spacing:0px;fill:#000000;fill-opacity:1;stroke:none;font-family:Sans"
       x="248.1049"
       y="108.72449"
       id="text3796"
       sodipodi:linespacing="125%"><tspan
         sodipodi:role="line"
         x="115.70647"
         y="108.72449"
         id="tspan3800"
         style="text-anchor:middle;text-align:center">At Design-Time select the parameters </tspan><tspan
         sodipodi:role="line"
         x="115.70647"
         y="126.22449"
         id="tspan3907"
         style="text-anchor:middle;text-align:center">configuration that best fits the </tspan><tspan
         sodipodi:role="line"
         x="115.70647"
         y="143.72449"
         id="tspan3909"
         style="text-anchor:middle;text-align:center">application's requirement</tspan></text>
    <rect
       style="fill:url(#linearGradient3858);fill-opacity:1;stroke:#00004d;stroke-width:0.77517653;stroke-miterlimit:4;stroke-opacity:1;stroke-dasharray:none;stroke-dashoffset:0"
       id="rect2990-6"
       width="333.79626"
       height="50.93911"
       x="81.316154"
       y="200.46408"
       rx="11.712149"
       ry="5.130558" />
    <text
       xml:space="preserve"
       style="font-size:14px;font-style:normal;font-weight:normal;line-height:125%;letter-spacing:0px;word-spacing:0px;fill:#000000;fill-opacity:1;stroke:none;font-family:Sans"
       x="246.94281"
       y="221.04594"
       id="text3796-9"
       sodipodi:linespacing="125%"><tspan
         sodipodi:role="line"
         x="126.61321"
         y="221.04594"
         id="tspan3800-5"
         style="text-anchor:middle;text-align:center">Execute the application with those</tspan><tspan
         sodipodi:role="line"
         x="126.61321"
         y="238.54594"
         id="tspan3903"
         style="text-anchor:middle;text-align:center">parameters </tspan></text>
    <text
       xml:space="preserve"
       style="font-size:24px;font-style:normal;font-weight:normal;line-height:125%;letter-spacing:0px;word-spacing:0px;fill:#000000;fill-opacity:1;stroke:none;font-family:Sans"
       x="148.31781"
       y="71.647896"
       id="text3911"
       sodipodi:linespacing="125%"><tspan
         sodipodi:role="line"
         id="tspan3913"
         x="148.31781"
         y="71.647896">Plain Application</tspan></text>
  </g>
</svg>
