%!PS-Adobe-3.0 EPSF-3.0
%%Creator: cairo 1.13.1 (http://cairographics.org)
%%CreationDate: Fri Mar 14 17:13:55 2014
%%Pages: 1
%%DocumentData: Clean7Bit
%%LanguageLevel: 2
%%BoundingBox: 0 0 768 576
%%EndComments
%%BeginProlog
save
50 dict begin
/q { gsave } bind def
/Q { grestore } bind def
/cm { 6 array astore concat } bind def
/w { setlinewidth } bind def
/J { setlinecap } bind def
/j { setlinejoin } bind def
/M { setmiterlimit } bind def
/d { setdash } bind def
/m { moveto } bind def
/l { lineto } bind def
/c { curveto } bind def
/h { closepath } bind def
/re { exch dup neg 3 1 roll 5 3 roll moveto 0 rlineto
      0 exch rlineto 0 rlineto closepath } bind def
/S { stroke } bind def
/f { fill } bind def
/f* { eofill } bind def
/n { newpath } bind def
/W { clip } bind def
/W* { eoclip } bind def
/BT { } bind def
/ET { } bind def
/pdfmark where { pop globaldict /?pdfmark /exec load put }
    { globaldict begin /?pdfmark /pop load def /pdfmark
    /cleartomark load def end } ifelse
/BDC { mark 3 1 roll /BDC pdfmark } bind def
/EMC { mark /EMC pdfmark } bind def
/cairo_store_point { /cairo_point_y exch def /cairo_point_x exch def } def
/Tj { show currentpoint cairo_store_point } bind def
/TJ {
  {
    dup
    type /stringtype eq
    { show } { -0.001 mul 0 cairo_font_matrix dtransform rmoveto } ifelse
  } forall
  currentpoint cairo_store_point
} bind def
/cairo_selectfont { cairo_font_matrix aload pop pop pop 0 0 6 array astore
    cairo_font exch selectfont cairo_point_x cairo_point_y moveto } bind def
/Tf { pop /cairo_font exch def /cairo_font_matrix where
      { pop cairo_selectfont } if } bind def
/Td { matrix translate cairo_font_matrix matrix concatmatrix dup
      /cairo_font_matrix exch def dup 4 get exch 5 get cairo_store_point
      /cairo_font where { pop cairo_selectfont } if } bind def
/Tm { 2 copy 8 2 roll 6 array astore /cairo_font_matrix exch def
      cairo_store_point /cairo_font where { pop cairo_selectfont } if } bind def
/g { setgray } bind def
/rg { setrgbcolor } bind def
/d1 { setcachedevice } bind def
%%EndProlog
%%Page: 1 1
%%BeginPageSetup
%%PageBoundingBox: 0 0 768 576
%%EndPageSetup
q 0 0 768 576 rectclip q
q
0 576 768 -576 re W n
  q
0.811765 0.886275 0.952941 rg
208.156 478.48 m 208.156 482.684 211.562 486.09 215.766 486.09 c 458.336
 486.09 l 460.352 486.09 462.289 485.289 463.715 483.859 c 465.145 482.434
 465.945 480.496 465.945 478.48 c 465.945 448.043 l 465.945 443.84 462.539
 440.434 458.336 440.434 c 215.766 440.434 l 211.562 440.434 208.156 443.84
 208.156 448.043 c h
f
0 g
1.6 w
0 J
1 j
[] 0.0 d
10 M q 1 0 0 -1 0 576 cm
208.156 97.52 m 208.156 93.316 211.562 89.91 215.766 89.91 c 458.336 89.91
 l 460.352 89.91 462.289 90.711 463.715 92.141 c 465.145 93.566 465.945 
95.504 465.945 97.52 c 465.945 127.957 l 465.945 132.16 462.539 135.566 
458.336 135.566 c 215.766 135.566 l 211.562 135.566 208.156 132.16 208.156
 127.957 c h
S Q
283.992 461.988 m 283.992 463.273 l 288.605 463.273 l 288.605 459.238 l
 287.895 458.672 287.164 458.246 286.402 457.961 c 285.652 457.68 284.883
 457.539 284.09 457.539 c 283.023 457.539 282.055 457.766 281.18 458.227
 c 280.312 458.684 279.652 459.348 279.203 460.211 c 278.762 461.078 278.543
 462.047 278.543 463.113 c 278.543 464.172 278.762 465.16 279.203 466.074
 c 279.645 466.992 280.281 467.672 281.117 468.113 c 281.949 468.562 282.906
 468.789 283.992 468.789 c 284.773 468.789 285.484 468.66 286.117 468.398
 c 286.758 468.148 287.258 467.797 287.617 467.336 c 287.977 466.887 288.25
 466.297 288.441 465.562 c 287.141 465.211 l 286.977 465.762 286.77 466.195
 286.527 466.512 c 286.289 466.828 285.941 467.082 285.492 467.273 c 285.043
 467.465 284.543 467.562 283.992 467.562 c 283.332 467.562 282.762 467.461
 282.277 467.262 c 281.805 467.062 281.418 466.797 281.117 466.461 c 280.824
 466.137 280.602 465.777 280.441 465.387 c 280.156 464.723 280.016 463.992
 280.016 463.199 c 280.016 462.234 280.184 461.422 280.516 460.762 c 280.859
 460.113 281.344 459.629 281.98 459.312 c 282.621 458.996 283.301 458.836
 284.016 458.836 c 284.641 458.836 285.25 458.957 285.84 459.199 c 286.434
 459.441 286.883 459.695 287.191 459.961 c 287.191 461.988 l h
295.738 460.262 m 297.113 460.086 l 296.895 459.289 296.492 458.664 295.902
 458.211 c 295.316 457.77 294.566 457.551 293.652 457.551 c 292.5 457.551
 291.59 457.902 290.914 458.613 c 290.238 459.32 289.902 460.316 289.902
 461.602 c 289.902 462.926 290.238 463.953 290.914 464.688 c 291.598 465.422
 292.484 465.789 293.574 465.789 c 294.633 465.789 295.496 465.43 296.164
 464.711 c 296.828 463.996 297.164 462.984 297.164 461.676 c 297.164 461.602
 297.16 461.484 297.152 461.324 c 291.277 461.324 l 291.324 460.457 291.57
 459.797 292.012 459.336 c 292.453 458.879 293.004 458.648 293.664 458.648
 c 294.145 458.648 294.559 458.773 294.902 459.023 c 295.25 459.285 295.531
 459.695 295.738 460.262 c h
291.352 462.426 m 295.75 462.426 l 295.691 463.082 295.527 463.578 295.25
 463.914 c 294.824 464.43 294.27 464.688 293.59 464.688 c 292.98 464.688
 292.465 464.48 292.039 464.062 c 291.621 463.652 291.391 463.109 291.352
 462.426 c h
301.562 458.926 m 301.75 457.738 l 301.375 457.664 301.039 457.625 300.738
 457.625 c 300.254 457.625 299.879 457.699 299.613 457.852 c 299.348 458.008
 299.16 458.207 299.051 458.449 c 298.941 458.699 298.887 459.23 298.887
 460.039 c 298.887 464.562 l 297.902 464.562 l 297.902 465.613 l 298.887
 465.613 l 298.887 467.562 l 300.215 468.363 l 300.215 465.613 l 301.562
 465.613 l 301.562 464.562 l 300.215 464.562 l 300.215 459.961 l 300.215
 459.578 300.234 459.332 300.277 459.227 c 300.324 459.117 300.406 459.027
 300.512 458.961 c 300.621 458.895 300.777 458.863 300.977 458.863 c 301.117
 458.863 301.312 458.883 301.562 458.926 c h
309.855 458.926 m 310.043 457.738 l 309.668 457.664 309.332 457.625 309.031
 457.625 c 308.547 457.625 308.172 457.699 307.906 457.852 c 307.641 458.008
 307.453 458.207 307.344 458.449 c 307.234 458.699 307.184 459.23 307.184
 460.039 c 307.184 464.562 l 306.195 464.562 l 306.195 465.613 l 307.184
 465.613 l 307.184 467.562 l 308.508 468.363 l 308.508 465.613 l 309.855
 465.613 l 309.855 464.562 l 308.508 464.562 l 308.508 459.961 l 308.508
 459.578 308.527 459.332 308.57 459.227 c 308.621 459.117 308.699 459.027
 308.809 458.961 c 308.914 458.895 309.07 458.863 309.27 458.863 c 309.41
 458.863 309.605 458.883 309.855 458.926 c h
311.078 457.727 m 311.078 468.602 l 312.414 468.602 l 312.414 464.699 l
 313.039 465.426 313.828 465.789 314.777 465.789 c 315.363 465.789 315.867
 465.672 316.289 465.438 c 316.723 465.211 317.031 464.895 317.215 464.488
 c 317.406 464.078 317.504 463.492 317.504 462.727 c 317.504 457.727 l 316.164
 457.727 l 316.164 462.727 l 316.164 463.391 316.02 463.875 315.727 464.176
 c 315.438 464.484 315.027 464.637 314.504 464.637 c 314.102 464.637 313.727
 464.535 313.379 464.324 c 313.035 464.125 312.789 463.848 312.641 463.488
 c 312.492 463.137 312.414 462.652 312.414 462.039 c 312.414 457.727 l h
324.777 460.262 m 326.152 460.086 l 325.938 459.289 325.535 458.664 324.941
 458.211 c 324.359 457.77 323.609 457.551 322.691 457.551 c 321.543 457.551
 320.629 457.902 319.953 458.613 c 319.277 459.32 318.941 460.316 318.941
 461.602 c 318.941 462.926 319.277 463.953 319.953 464.688 c 320.637 465.422
 321.523 465.789 322.617 465.789 c 323.676 465.789 324.539 465.43 325.203
 464.711 c 325.871 463.996 326.203 462.984 326.203 461.676 c 326.203 461.602
 326.199 461.484 326.191 461.324 c 320.316 461.324 l 320.367 460.457 320.613
 459.797 321.055 459.336 c 321.496 458.879 322.047 458.648 322.703 458.648
 c 323.188 458.648 323.602 458.773 323.941 459.023 c 324.293 459.285 324.57
 459.695 324.777 460.262 c h
320.391 462.426 m 324.793 462.426 l 324.734 463.082 324.566 463.578 324.293
 463.914 c 323.867 464.43 323.312 464.688 322.629 464.688 c 322.02 464.688
 321.504 464.48 321.078 464.062 c 320.664 463.652 320.434 463.109 320.391
 462.426 c h
336.938 457.727 m 336.938 458.727 l 336.438 457.941 335.707 457.551 334.738
 457.551 c 334.113 457.551 333.535 457.723 333 458.062 c 332.477 458.414
 332.066 458.895 331.777 459.512 c 331.492 460.137 331.352 460.855 331.352
 461.664 c 331.352 462.445 331.48 463.16 331.738 463.801 c 332.004 464.441
 332.398 464.934 332.914 465.273 c 333.438 465.617 334.027 465.789 334.676
 465.789 c 335.152 465.789 335.57 465.688 335.938 465.488 c 336.312 465.289
 336.617 465.023 336.852 464.699 c 336.852 468.602 l 338.176 468.602 l 338.176
 457.727 l h
332.715 461.664 m 332.715 460.652 332.926 459.898 333.352 459.398 c 333.785
 458.898 334.289 458.648 334.863 458.648 c 335.445 458.648 335.941 458.887
 336.352 459.363 c 336.758 459.836 336.965 460.566 336.965 461.551 c 336.965
 462.625 336.754 463.414 336.34 463.914 c 335.922 464.422 335.41 464.676
 334.801 464.676 c 334.211 464.676 333.715 464.434 333.312 463.949 c 332.914
 463.465 332.715 462.703 332.715 461.664 c h
340.141 467.074 m 340.141 468.602 l 341.477 468.602 l 341.477 467.074 l
 h
340.141 457.727 m 340.141 465.613 l 341.477 465.613 l 341.477 457.727 l
 h
343.77 457.727 m 343.77 464.562 l 342.582 464.562 l 342.582 465.613 l 343.77
 465.613 l 343.77 466.449 l 343.77 466.977 343.812 467.367 343.906 467.625
 c 344.031 467.977 344.254 468.254 344.582 468.461 c 344.906 468.68 345.359
 468.789 345.941 468.789 c 346.316 468.789 346.734 468.746 347.191 468.664
 c 346.992 467.488 l 346.719 467.539 346.457 467.562 346.207 467.562 c 345.797
 467.562 345.508 467.477 345.344 467.301 c 345.176 467.133 345.094 466.812
 345.094 466.336 c 345.094 465.613 l 346.629 465.613 l 346.629 464.562 l
 345.094 464.562 l 345.094 457.727 l h
347.914 457.727 m 347.914 464.562 l 346.727 464.562 l 346.727 465.613 l
 347.914 465.613 l 347.914 466.449 l 347.914 466.977 347.961 467.367 348.051
 467.625 c 348.176 467.977 348.402 468.254 348.727 468.461 c 349.051 468.68
 349.508 468.789 350.09 468.789 c 350.465 468.789 350.883 468.746 351.34
 468.664 c 351.141 467.488 l 350.863 467.539 350.602 467.562 350.352 467.562
 c 349.945 467.562 349.656 467.477 349.488 467.301 c 349.324 467.133 349.238
 466.812 349.238 466.336 c 349.238 465.613 l 350.777 465.613 l 350.777 464.562
 l 349.238 464.562 l 349.238 457.727 l h
357.137 460.262 m 358.512 460.086 l 358.293 459.289 357.891 458.664 357.297
 458.211 c 356.715 457.77 355.965 457.551 355.047 457.551 c 353.898 457.551
 352.984 457.902 352.312 458.613 c 351.637 459.32 351.297 460.316 351.297
 461.602 c 351.297 462.926 351.637 463.953 352.312 464.688 c 352.996 465.422
 353.883 465.789 354.973 465.789 c 356.031 465.789 356.895 465.43 357.562
 464.711 c 358.227 463.996 358.562 462.984 358.562 461.676 c 358.562 461.602
 358.559 461.484 358.547 461.324 c 352.672 461.324 l 352.723 460.457 352.969
 459.797 353.41 459.336 c 353.852 458.879 354.402 458.648 355.062 458.648
 c 355.543 458.648 355.957 458.773 356.297 459.023 c 356.648 459.285 356.926
 459.695 357.137 460.262 c h
352.75 462.426 m 357.148 462.426 l 357.09 463.082 356.922 463.578 356.648
 463.914 c 356.223 464.43 355.668 464.688 354.984 464.688 c 354.379 464.688
 353.859 464.48 353.438 464.062 c 353.02 463.652 352.789 463.109 352.75 
462.426 c h
360.023 457.727 m 360.023 465.613 l 361.223 465.613 l 361.223 464.414 l
 361.531 464.973 361.816 465.336 362.074 465.512 c 362.332 465.695 362.621
 465.789 362.938 465.789 c 363.387 465.789 363.844 465.641 364.312 465.352
 c 363.848 464.113 l 363.523 464.305 363.195 464.398 362.863 464.398 c 362.57
 464.398 362.309 464.312 362.074 464.137 c 361.848 463.961 361.688 463.723
 361.586 463.414 c 361.438 462.938 361.363 462.418 361.363 461.852 c 361.363
 457.727 l h
370.406 460.262 m 371.781 460.086 l 371.566 459.289 371.16 458.664 370.57
 458.211 c 369.984 457.77 369.234 457.551 368.32 457.551 c 367.168 457.551
 366.258 457.902 365.582 458.613 c 364.906 459.32 364.57 460.316 364.57 
461.602 c 364.57 462.926 364.906 463.953 365.582 464.688 c 366.266 465.422
 367.152 465.789 368.246 465.789 c 369.301 465.789 370.164 465.43 370.832
 464.711 c 371.5 463.996 371.832 462.984 371.832 461.676 c 371.832 461.602
 371.828 461.484 371.82 461.324 c 365.945 461.324 l 365.996 460.457 366.238
 459.797 366.684 459.336 c 367.125 458.879 367.672 458.648 368.332 458.648
 c 368.816 458.648 369.227 458.773 369.57 459.023 c 369.918 459.285 370.199
 459.695 370.406 460.262 c h
366.02 462.426 m 370.418 462.426 l 370.359 463.082 370.195 463.578 369.918
 463.914 c 369.496 464.43 368.941 464.688 368.258 464.688 c 367.648 464.688
 367.133 464.48 366.707 464.062 c 366.289 463.652 366.062 463.109 366.02
 462.426 c h
373.309 457.727 m 373.309 465.613 l 374.508 465.613 l 374.508 464.488 l
 375.09 465.355 375.93 465.789 377.02 465.789 c 377.496 465.789 377.934 
465.699 378.332 465.523 c 378.73 465.359 379.027 465.133 379.219 464.852
 c 379.418 464.574 379.562 464.25 379.645 463.875 c 379.695 463.625 379.719
 463.191 379.719 462.574 c 379.719 457.727 l 378.383 457.727 l 378.383 462.523
 l 378.383 463.066 378.328 463.473 378.219 463.738 c 378.121 464.012 377.938
 464.23 377.668 464.387 c 377.402 464.547 377.09 464.625 376.73 464.625 
c 376.164 464.625 375.676 464.445 375.258 464.086 c 374.848 463.73 374.645
 463.043 374.645 462.023 c 374.645 457.727 l h
386.758 460.613 m 388.07 460.438 l 387.93 459.539 387.562 458.828 386.969
 458.312 c 386.379 457.805 385.648 457.551 384.781 457.551 c 383.707 457.551
 382.84 457.898 382.184 458.602 c 381.531 459.309 381.207 460.32 381.207
 461.637 c 381.207 462.488 381.344 463.23 381.621 463.863 c 381.902 464.504
 382.332 464.984 382.906 465.301 c 383.492 465.625 384.121 465.789 384.797
 465.789 c 385.652 465.789 386.355 465.57 386.895 465.137 c 387.438 464.703
 387.785 464.086 387.945 463.289 c 386.645 463.086 l 386.52 463.621 386.301
 464.02 385.984 464.289 c 385.668 464.555 385.285 464.688 384.844 464.688
 c 384.172 464.688 383.621 464.445 383.195 463.961 c 382.777 463.48 382.57
 462.715 382.57 461.676 c 382.57 460.617 382.773 459.848 383.184 459.363
 c 383.59 458.887 384.121 458.648 384.77 458.648 c 385.297 458.648 385.734
 458.809 386.082 459.125 c 386.434 459.449 386.656 459.945 386.758 460.613
 c h
394.469 460.262 m 395.844 460.086 l 395.629 459.289 395.223 458.664 394.633
 458.211 c 394.051 457.77 393.301 457.551 392.383 457.551 c 391.234 457.551
 390.32 457.902 389.645 458.613 c 388.969 459.32 388.633 460.316 388.633
 461.602 c 388.633 462.926 388.969 463.953 389.645 464.688 c 390.328 465.422
 391.215 465.789 392.309 465.789 c 393.367 465.789 394.23 465.43 394.895
 464.711 c 395.562 463.996 395.895 462.984 395.895 461.676 c 395.895 461.602
 395.891 461.484 395.883 461.324 c 390.008 461.324 l 390.059 460.457 390.305
 459.797 390.746 459.336 c 391.188 458.879 391.738 458.648 392.395 458.648
 c 392.879 458.648 393.293 458.773 393.633 459.023 c 393.984 459.285 394.262
 459.695 394.469 460.262 c h
390.082 462.426 m 394.484 462.426 l 394.426 463.082 394.258 463.578 393.984
 463.914 c 393.559 464.43 393.004 464.688 392.32 464.688 c 391.711 464.688
 391.195 464.48 390.77 464.062 c 390.355 463.652 390.125 463.109 390.082
 462.426 c h
f
q 1 0 0 -1 0 576 cm
336.695 59.699 m 336.938 80.312 l S Q
334.297 495.656 m 337.023 488.43 l 339.582 495.719 l h
f*
0 j
q 1 0 0 -1 0 576 cm
334.297 80.344 m 337.023 87.57 l 339.582 80.281 l h
S Q
1 j
[ 1.6 4.8] 0 d
q 1 0 0 -1 0 576 cm
477.188 112.387 m 579.992 112.387 l S Q
579.992 460.969 m 587.254 463.613 l 579.992 466.254 l h
f*
0 j
[] 0.0 d
q 1 0 0 -1 0 576 cm
579.992 115.031 m 587.254 112.387 l 579.992 109.746 l h
S Q
614.148 460.926 m 614.148 461.926 l 613.648 461.141 612.914 460.75 611.949
 460.75 c 611.324 460.75 610.742 460.922 610.211 461.262 c 609.688 461.613
 609.277 462.098 608.984 462.711 c 608.703 463.336 608.562 464.055 608.562
 464.863 c 608.562 465.645 608.691 466.359 608.949 467 c 609.215 467.641
 609.605 468.133 610.125 468.477 c 610.648 468.816 611.234 468.988 611.887
 468.988 c 612.359 468.988 612.781 468.887 613.148 468.688 c 613.523 468.488
 613.828 468.227 614.062 467.898 c 614.062 471.801 l 615.387 471.801 l 615.387
 460.926 l h
609.922 464.863 m 609.922 463.855 610.137 463.102 610.562 462.602 c 610.992
 462.102 611.5 461.852 612.074 461.852 c 612.656 461.852 613.152 462.086
 613.562 462.562 c 613.969 463.039 614.172 463.766 614.172 464.75 c 614.172
 465.824 613.965 466.613 613.547 467.113 c 613.133 467.621 612.617 467.875
 612.012 467.875 c 611.418 467.875 610.922 467.633 610.523 467.148 c 610.125
 466.668 609.922 465.902 609.922 464.863 c h
628.508 467.324 m 621.332 467.324 l 621.332 468.574 l 628.508 468.574 l
 h
628.508 464.023 m 621.332 464.023 l 621.332 465.262 l 628.508 465.262 l
 h
639.457 460.926 m 639.457 461.926 l 638.957 461.141 638.227 460.75 637.258
 460.75 c 636.633 460.75 636.055 460.922 635.52 461.262 c 634.996 461.613
 634.586 462.098 634.297 462.711 c 634.012 463.336 633.871 464.055 633.871
 464.863 c 633.871 465.645 634 466.359 634.258 467 c 634.523 467.641 634.918
 468.133 635.434 468.477 c 635.957 468.816 636.547 468.988 637.195 468.988
 c 637.672 468.988 638.09 468.887 638.457 468.688 c 638.832 468.488 639.137
 468.227 639.371 467.898 c 639.371 471.801 l 640.695 471.801 l 640.695 460.926
 l h
635.234 464.863 m 635.234 463.855 635.445 463.102 635.871 462.602 c 636.305
 462.102 636.809 461.852 637.383 461.852 c 637.965 461.852 638.461 462.086
 638.871 462.562 c 639.277 463.039 639.484 463.766 639.484 464.75 c 639.484
 465.824 639.273 466.613 638.859 467.113 c 638.441 467.621 637.93 467.875
 637.32 467.875 c 636.73 467.875 636.234 467.633 635.832 467.148 c 635.434
 466.668 635.234 465.902 635.234 464.863 c h
f
642.121 454.914 m 642.945 454.789 l 642.98 454.539 643.074 454.355 643.234
 454.238 c 643.441 454.078 643.727 454 644.082 454 c 644.477 454 644.773
 454.078 644.984 454.238 c 645.199 454.395 645.348 454.613 645.422 454.887
 c 645.473 455.062 645.492 455.426 645.484 455.977 c 645.117 455.543 644.66
 455.324 644.109 455.324 c 643.426 455.324 642.895 455.57 642.52 456.062
 c 642.145 456.562 641.957 457.152 641.957 457.836 c 641.957 458.312 642.043
 458.75 642.207 459.148 c 642.383 459.559 642.633 459.871 642.957 460.086
 c 643.285 460.305 643.668 460.414 644.109 460.414 c 644.699 460.414 645.188
 460.176 645.57 459.699 c 645.57 460.301 l 646.348 460.301 l 646.348 456
 l 646.348 455.227 646.266 454.676 646.109 454.352 c 645.949 454.023 645.699
 453.77 645.359 453.586 c 645.016 453.395 644.598 453.301 644.098 453.301
 c 643.504 453.301 643.023 453.434 642.66 453.699 c 642.293 453.965 642.113
 454.371 642.121 454.914 c h
642.82 457.898 m 642.82 457.25 642.949 456.773 643.207 456.477 c 643.469
 456.176 643.793 456.023 644.184 456.023 c 644.574 456.023 644.898 456.176
 645.16 456.477 c 645.426 456.773 645.559 457.242 645.559 457.875 c 645.559
 458.484 645.422 458.941 645.145 459.25 c 644.879 459.559 644.555 459.711
 644.172 459.711 c 643.797 459.711 643.477 459.559 643.207 459.25 c 642.949
 458.949 642.82 458.5 642.82 457.898 c h
647.504 457.812 m 647.504 458.738 647.758 459.422 648.266 459.863 c 648.691
 460.23 649.215 460.414 649.828 460.414 c 650.512 460.414 651.07 460.188
 651.504 459.738 c 651.945 459.297 652.168 458.68 652.168 457.887 c 652.168
 457.246 652.07 456.742 651.879 456.375 c 651.688 456.008 651.406 455.723
 651.031 455.512 c 650.664 455.312 650.262 455.211 649.828 455.211 c 649.137
 455.211 648.574 455.434 648.141 455.875 c 647.719 456.324 647.504 456.973
 647.504 457.812 c h
648.367 457.812 m 648.367 457.18 648.504 456.703 648.781 456.387 c 649.062
 456.07 649.414 455.914 649.828 455.914 c 650.254 455.914 650.605 456.07
 650.879 456.387 c 651.156 456.703 651.293 457.188 651.293 457.836 c 651.293
 458.453 651.152 458.922 650.867 459.238 c 650.594 459.555 650.246 459.711
 649.828 459.711 c 649.414 459.711 649.062 459.555 648.781 459.238 c 648.504
 458.93 648.367 458.453 648.367 457.812 c h
656.602 455.938 m 656.285 455.672 655.98 455.484 655.688 455.375 c 655.406
 455.266 655.098 455.211 654.762 455.211 c 654.215 455.211 653.793 455.348
 653.5 455.613 c 653.211 455.879 653.062 456.223 653.062 456.637 c 653.062
 456.879 653.117 457.102 653.227 457.301 c 653.336 457.508 653.48 457.672
 653.664 457.789 c 653.848 457.914 654.051 458.004 654.277 458.062 c 654.434
 458.113 654.684 458.16 655.027 458.199 c 655.699 458.273 656.199 458.371
 656.527 458.488 c 656.527 458.699 l 656.527 459.051 656.445 459.297 656.289
 459.438 c 656.07 459.621 655.75 459.711 655.324 459.711 c 654.934 459.711
 654.641 459.641 654.449 459.5 c 654.258 459.367 654.117 459.125 654.027
 458.773 c 653.199 458.887 l 653.277 459.238 653.402 459.52 653.574 459.738
 c 653.75 459.953 654 460.121 654.324 460.238 c 654.652 460.355 655.027 
460.414 655.449 460.414 c 655.875 460.414 656.223 460.363 656.488 460.262
 c 656.754 460.164 656.949 460.039 657.074 459.887 c 657.199 459.738 657.289
 459.547 657.34 459.312 c 657.363 459.172 657.375 458.914 657.375 458.539
 c 657.375 457.414 l 657.375 456.629 657.391 456.133 657.426 455.926 c 657.469
 455.715 657.543 455.516 657.652 455.324 c 656.762 455.324 l 656.68 455.5
 656.625 455.703 656.602 455.938 c h
656.527 457.824 m 656.219 457.699 655.758 457.59 655.152 457.5 c 654.801
 457.449 654.555 457.391 654.414 457.324 c 654.273 457.266 654.16 457.18
 654.074 457.062 c 654 456.945 653.965 456.812 653.965 456.664 c 653.965
 456.438 654.047 456.25 654.215 456.102 c 654.387 455.949 654.637 455.875
 654.965 455.875 c 655.289 455.875 655.574 455.945 655.824 456.086 c 656.086
 456.23 656.273 456.426 656.387 456.676 c 656.48 456.867 656.527 457.145
 656.527 457.512 c h
658.859 455.324 m 658.859 462.199 l 659.711 462.199 l 659.711 455.324 l
 h
f
668.418 462.688 m 668.418 465.664 l 665.453 465.664 l 665.453 466.914 l
 668.418 466.914 l 668.418 469.875 l 669.68 469.875 l 669.68 466.914 l 672.629
 466.914 l 672.629 465.664 l 669.68 465.664 l 669.68 462.688 l h
683.578 460.926 m 683.578 461.926 l 683.078 461.141 682.348 460.75 681.379
 460.75 c 680.754 460.75 680.176 460.922 679.641 461.262 c 679.117 461.613
 678.707 462.098 678.418 462.711 c 678.133 463.336 677.992 464.055 677.992
 464.863 c 677.992 465.645 678.121 466.359 678.379 467 c 678.645 467.641
 679.039 468.133 679.555 468.477 c 680.078 468.816 680.668 468.988 681.316
 468.988 c 681.793 468.988 682.211 468.887 682.578 468.688 c 682.953 468.488
 683.258 468.227 683.492 467.898 c 683.492 471.801 l 684.816 471.801 l 684.816
 460.926 l h
679.355 464.863 m 679.355 463.855 679.566 463.102 679.992 462.602 c 680.426
 462.102 680.93 461.852 681.504 461.852 c 682.086 461.852 682.582 462.086
 682.992 462.562 c 683.398 463.039 683.605 463.766 683.605 464.75 c 683.605
 465.824 683.395 466.613 682.98 467.113 c 682.562 467.621 682.051 467.875
 681.441 467.875 c 680.852 467.875 680.355 467.633 679.953 467.148 c 679.555
 466.668 679.355 465.902 679.355 464.863 c h
f
686.094 457.812 m 686.094 458.738 686.348 459.422 686.855 459.863 c 687.281
 460.23 687.801 460.414 688.418 460.414 c 689.102 460.414 689.66 460.188
 690.094 459.738 c 690.535 459.297 690.754 458.68 690.754 457.887 c 690.754
 457.246 690.66 456.742 690.469 456.375 c 690.277 456.008 689.992 455.723
 689.617 455.512 c 689.25 455.312 688.852 455.211 688.418 455.211 c 687.727
 455.211 687.164 455.434 686.73 455.875 c 686.305 456.324 686.094 456.973
 686.094 457.812 c h
686.953 457.812 m 686.953 457.18 687.094 456.703 687.367 456.387 c 687.652
 456.07 688 455.914 688.418 455.914 c 688.844 455.914 689.191 456.07 689.469
 456.387 c 689.742 456.703 689.879 457.188 689.879 457.836 c 689.879 458.453
 689.738 458.922 689.453 459.238 c 689.18 459.555 688.836 459.711 688.418
 459.711 c 688 459.711 687.652 459.555 687.367 459.238 c 687.094 458.93 
686.953 458.453 686.953 457.812 c h
692.715 455.324 m 691.926 455.324 l 691.926 462.199 l 692.777 462.199 l
 692.777 459.75 l 693.133 460.191 693.59 460.414 694.137 460.414 c 694.445
 460.414 694.734 460.352 695 460.227 c 695.277 460.109 695.5 459.938 695.676
 459.711 c 695.859 459.488 696 459.215 696.102 458.898 c 696.199 458.582
 696.25 458.246 696.25 457.887 c 696.25 457.039 696.039 456.379 695.613 
455.914 c 695.188 455.445 694.684 455.211 694.102 455.211 c 693.508 455.211
 693.047 455.457 692.715 455.949 c h
692.699 457.852 m 692.699 457.258 692.785 456.828 692.949 456.562 c 693.219
 456.129 693.574 455.914 694.027 455.914 c 694.395 455.914 694.711 456.07
 694.977 456.387 c 695.25 456.703 695.387 457.184 695.387 457.824 c 695.387
 458.477 695.258 458.953 695 459.262 c 694.742 459.57 694.43 459.727 694.062
 459.727 c 693.695 459.727 693.375 459.562 693.102 459.238 c 692.836 458.922
 692.699 458.457 692.699 457.852 c h
697.133 456.812 m 697.961 456.938 l 698.008 456.605 698.141 456.352 698.348
 456.176 c 698.562 456 698.867 455.914 699.258 455.914 c 699.645 455.914
 699.926 455.988 700.109 456.137 c 700.301 456.297 700.398 456.484 700.398
 456.699 c 700.398 456.891 700.312 457.043 700.148 457.148 c 700.031 457.227
 699.742 457.32 699.285 457.438 c 698.668 457.598 698.238 457.73 697.996
 457.836 c 697.766 457.953 697.586 458.113 697.461 458.312 c 697.336 458.512
 697.273 458.738 697.273 458.988 c 697.273 459.203 697.32 459.41 697.422
 459.602 c 697.523 459.793 697.66 459.949 697.836 460.074 c 697.969 460.168
 698.148 460.246 698.371 460.312 c 698.598 460.379 698.844 460.414 699.109
 460.414 c 699.492 460.414 699.832 460.355 700.121 460.238 c 700.422 460.129
 700.645 459.98 700.785 459.789 c 700.926 459.598 701.023 459.34 701.07 
459.023 c 700.246 458.914 l 700.215 459.164 700.105 459.359 699.922 459.5
 c 699.746 459.648 699.492 459.727 699.16 459.727 c 698.777 459.727 698.5
 459.66 698.336 459.523 c 698.168 459.398 698.086 459.25 698.086 459.074
 c 698.086 458.965 698.117 458.871 698.184 458.789 c 698.258 458.695 698.367
 458.621 698.508 458.562 c 698.594 458.527 698.844 458.457 699.258 458.352
 c 699.859 458.184 700.277 458.051 700.508 457.949 c 700.742 457.852 700.926
 457.703 701.059 457.512 c 701.191 457.32 701.258 457.078 701.258 456.789
 c 701.258 456.504 701.176 456.238 701.008 455.988 c 700.852 455.746 700.617
 455.555 700.309 455.414 c 700 455.277 699.652 455.211 699.258 455.211 c
 698.609 455.211 698.113 455.348 697.773 455.613 c 697.438 455.887 697.227
 456.289 697.133 456.812 c h
705.848 456.926 m 706.723 456.824 l 706.59 456.316 706.336 455.922 705.961
 455.637 c 705.586 455.355 705.109 455.211 704.535 455.211 c 703.809 455.211
 703.23 455.438 702.797 455.887 c 702.371 456.336 702.16 456.965 702.16 
457.773 c 702.16 458.609 702.375 459.254 702.809 459.711 c 703.242 460.18
 703.801 460.414 704.484 460.414 c 705.152 460.414 705.691 460.188 706.109
 459.738 c 706.535 459.289 706.746 458.648 706.746 457.824 c 706.746 457.602
 l 703.035 457.602 l 703.066 457.051 703.223 456.629 703.496 456.336 c 703.773
 456.055 704.117 455.914 704.535 455.914 c 704.844 455.914 705.105 455.992
 705.32 456.148 c 705.547 456.316 705.723 456.574 705.848 456.926 c h
703.086 458.289 m 705.859 458.289 l 705.828 458.711 705.723 459.027 705.547
 459.238 c 705.273 459.562 704.922 459.727 704.496 459.727 c 704.105 459.727
 703.777 459.598 703.508 459.336 c 703.25 459.078 703.109 458.73 703.086
 458.289 c h
707.969 455.324 m 707.969 460.301 l 708.73 460.301 l 708.73 459.551 l 708.922
 459.898 709.098 460.129 709.254 460.238 c 709.422 460.355 709.605 460.414
 709.805 460.414 c 710.09 460.414 710.375 460.324 710.668 460.148 c 710.379
 459.363 l 710.172 459.488 709.969 459.551 709.77 459.551 c 709.578 459.551
 709.406 459.492 709.254 459.375 c 709.113 459.266 709.016 459.113 708.957
 458.914 c 708.855 458.613 708.805 458.289 708.805 457.938 c 708.805 455.324
 l h
712.668 455.324 m 710.781 460.301 l 711.668 460.301 l 712.742 457.324 l
 712.852 457 712.957 456.668 713.055 456.324 c 713.133 456.582 713.234 456.895
 713.367 457.262 c 714.48 460.301 l 715.344 460.301 l 713.457 455.324 l 
h
719.52 455.938 m 719.203 455.672 718.898 455.484 718.605 455.375 c 718.324
 455.266 718.016 455.211 717.68 455.211 c 717.133 455.211 716.711 455.348
 716.418 455.613 c 716.129 455.879 715.98 456.223 715.98 456.637 c 715.98
 456.879 716.035 457.102 716.145 457.301 c 716.254 457.508 716.398 457.672
 716.582 457.789 c 716.766 457.914 716.969 458.004 717.195 458.062 c 717.352
 458.113 717.602 458.16 717.945 458.199 c 718.617 458.273 719.117 458.371
 719.445 458.488 c 719.445 458.699 l 719.445 459.051 719.363 459.297 719.207
 459.438 c 718.988 459.621 718.668 459.711 718.242 459.711 c 717.852 459.711
 717.562 459.641 717.367 459.5 c 717.176 459.367 717.035 459.125 716.945
 458.773 c 716.117 458.887 l 716.195 459.238 716.32 459.52 716.492 459.738
 c 716.668 459.953 716.918 460.121 717.242 460.238 c 717.57 460.355 717.945
 460.414 718.367 460.414 c 718.793 460.414 719.141 460.363 719.406 460.262
 c 719.672 460.164 719.867 460.039 719.992 459.887 c 720.117 459.738 720.207
 459.547 720.258 459.312 c 720.281 459.172 720.293 458.914 720.293 458.539
 c 720.293 457.414 l 720.293 456.629 720.312 456.133 720.344 455.926 c 720.387
 455.715 720.461 455.516 720.57 455.324 c 719.68 455.324 l 719.598 455.5
 719.543 455.703 719.52 455.938 c h
719.445 457.824 m 719.137 457.699 718.676 457.59 718.07 457.5 c 717.719
 457.449 717.473 457.391 717.332 457.324 c 717.191 457.266 717.078 457.18
 716.992 457.062 c 716.918 456.945 716.883 456.812 716.883 456.664 c 716.883
 456.438 716.965 456.25 717.133 456.102 c 717.305 455.949 717.555 455.875
 717.883 455.875 c 718.207 455.875 718.492 455.945 718.742 456.086 c 719.004
 456.23 719.191 456.426 719.305 456.676 c 719.398 456.867 719.445 457.145
 719.445 457.512 c h
723.641 456.074 m 723.766 455.336 l 723.523 455.289 723.312 455.262 723.129
 455.262 c 722.82 455.262 722.582 455.309 722.414 455.398 c 722.25 455.5
 722.129 455.629 722.051 455.789 c 721.984 455.945 721.953 456.277 721.953
 456.789 c 721.953 459.648 l 721.34 459.648 l 721.34 460.301 l 721.953 460.301
 l 721.953 461.539 l 722.789 462.039 l 722.789 460.301 l 723.641 460.301
 l 723.641 459.648 l 722.789 459.648 l 722.789 456.738 l 722.789 456.496
 722.801 456.34 722.828 456.273 c 722.859 456.207 722.91 456.152 722.977
 456.113 c 723.043 456.07 723.141 456.051 723.266 456.051 c 723.363 456.051
 723.488 456.059 723.641 456.074 c h
724.566 461.227 m 724.566 462.199 l 725.418 462.199 l 725.418 461.227 l
 h
724.566 455.324 m 724.566 460.301 l 725.418 460.301 l 725.418 455.324 l
 h
726.465 457.812 m 726.465 458.738 726.719 459.422 727.227 459.863 c 727.652
 460.23 728.172 460.414 728.789 460.414 c 729.473 460.414 730.031 460.188
 730.465 459.738 c 730.906 459.297 731.129 458.68 731.129 457.887 c 731.129
 457.246 731.031 456.742 730.84 456.375 c 730.648 456.008 730.363 455.723
 729.988 455.512 c 729.625 455.312 729.223 455.211 728.789 455.211 c 728.098
 455.211 727.535 455.434 727.102 455.875 c 726.676 456.324 726.465 456.973
 726.465 457.812 c h
727.328 457.812 m 727.328 457.18 727.465 456.703 727.738 456.387 c 728.023
 456.07 728.375 455.914 728.789 455.914 c 729.215 455.914 729.566 456.07
 729.84 456.387 c 730.113 456.703 730.254 457.188 730.254 457.836 c 730.254
 458.453 730.109 458.922 729.828 459.238 c 729.551 459.555 729.207 459.711
 728.789 459.711 c 728.375 459.711 728.023 459.555 727.738 459.238 c 727.465
 458.93 727.328 458.453 727.328 457.812 c h
732.312 455.324 m 732.312 460.301 l 733.062 460.301 l 733.062 459.602 l
 733.43 460.141 733.957 460.414 734.648 460.414 c 734.949 460.414 735.223
 460.359 735.473 460.25 c 735.73 460.141 735.922 460 736.047 459.824 c 736.172
 459.648 736.262 459.445 736.312 459.211 c 736.336 459.055 736.348 458.777
 736.348 458.387 c 736.348 455.324 l 735.512 455.324 l 735.512 458.352 l
 735.512 458.699 735.477 458.957 735.41 459.125 c 735.344 459.293 735.227
 459.426 735.062 459.523 c 734.895 459.633 734.699 459.688 734.473 459.688
 c 734.117 459.688 733.805 459.57 733.535 459.336 c 733.277 459.113 733.148
 458.684 733.148 458.051 c 733.148 455.324 l h
f
0.811765 0.886275 0.952941 rg
48.156 345.562 m 48.156 349.766 51.562 353.172 55.766 353.172 c 298.336
 353.172 l 300.352 353.172 302.289 352.371 303.715 350.941 c 305.145 349.516
 305.945 347.582 305.945 345.562 c 305.945 315.125 l 305.945 310.922 302.539
 307.516 298.336 307.516 c 55.766 307.516 l 51.562 307.516 48.156 310.922
 48.156 315.125 c h
f
0 g
1 j
q 1 0 0 -1 0 576 cm
48.156 230.438 m 48.156 226.234 51.562 222.828 55.766 222.828 c 298.336
 222.828 l 300.352 222.828 302.289 223.629 303.715 225.059 c 305.145 226.484
 305.945 228.418 305.945 230.438 c 305.945 260.875 l 305.945 265.078 302.539
 268.484 298.336 268.484 c 55.766 268.484 l 51.562 268.484 48.156 265.078
 48.156 260.875 c h
S Q
128.383 324.809 m 128.383 335.684 l 132.473 335.684 l 133.297 335.684 133.961
 335.574 134.461 335.355 c 134.969 335.141 135.363 334.805 135.648 334.344
 c 135.93 333.887 136.07 333.406 136.07 332.906 c 136.07 332.441 135.945
 332 135.695 331.582 c 135.445 331.176 135.062 330.844 134.547 330.594 c
 135.207 330.402 135.711 330.074 136.059 329.605 c 136.418 329.141 136.598
 328.59 136.598 327.957 c 136.598 327.449 136.488 326.973 136.273 326.531
 c 136.062 326.098 135.801 325.762 135.484 325.52 c 135.168 325.285 134.77
 325.105 134.285 324.98 c 133.809 324.867 133.227 324.809 132.535 324.809
 c h
129.82 331.121 m 132.172 331.121 l 132.812 331.121 133.273 331.16 133.547
 331.246 c 133.914 331.352 134.188 331.531 134.371 331.781 c 134.562 332.031
 134.66 332.348 134.66 332.73 c 134.66 333.09 134.57 333.406 134.398 333.684
 c 134.223 333.957 133.973 334.145 133.648 334.246 c 133.332 334.352 132.781
 334.406 131.996 334.406 c 129.82 334.406 l h
129.82 326.094 m 132.535 326.094 l 133 326.094 133.324 326.113 133.508 
326.145 c 133.844 326.203 134.121 326.301 134.348 326.434 c 134.57 326.574
 134.754 326.777 134.898 327.043 c 135.039 327.312 135.109 327.617 135.109
 327.957 c 135.109 328.367 135.004 328.719 134.797 329.02 c 134.59 329.32
 134.301 329.527 133.934 329.645 c 133.566 329.77 133.039 329.832 132.348
 329.832 c 129.82 329.832 l h
143.625 327.344 m 145 327.168 l 144.785 326.371 144.383 325.746 143.789
 325.293 c 143.207 324.852 142.457 324.633 141.539 324.633 c 140.391 324.633
 139.477 324.988 138.801 325.695 c 138.125 326.402 137.789 327.398 137.789
 328.684 c 137.789 330.008 138.125 331.035 138.801 331.77 c 139.484 332.504
 140.371 332.871 141.465 332.871 c 142.523 332.871 143.387 332.512 144.051
 331.793 c 144.719 331.078 145.051 330.066 145.051 328.758 c 145.051 328.684
 145.047 328.566 145.039 328.406 c 139.164 328.406 l 139.215 327.539 139.461
 326.879 139.902 326.418 c 140.344 325.961 140.895 325.73 141.551 325.73
 c 142.035 325.73 142.449 325.855 142.789 326.105 c 143.141 326.367 143.418
 326.777 143.625 327.344 c h
139.238 329.508 m 143.641 329.508 l 143.582 330.164 143.414 330.66 143.141
 330.996 c 142.715 331.512 142.16 331.77 141.477 331.77 c 140.867 331.77
 140.352 331.562 139.926 331.145 c 139.512 330.738 139.281 330.191 139.238
 329.508 c h
149.453 326.008 m 149.641 324.82 l 149.266 324.746 148.926 324.707 148.629
 324.707 c 148.145 324.707 147.77 324.781 147.504 324.934 c 147.234 325.09
 147.047 325.289 146.941 325.531 c 146.832 325.781 146.777 326.312 146.777
 327.121 c 146.777 331.645 l 145.789 331.645 l 145.789 332.695 l 146.777
 332.695 l 146.777 334.645 l 148.102 335.445 l 148.102 332.695 l 149.453
 332.695 l 149.453 331.645 l 148.102 331.645 l 148.102 327.043 l 148.102
 326.66 148.125 326.414 148.164 326.309 c 148.215 326.199 148.293 326.113
 148.402 326.043 c 148.512 325.977 148.664 325.945 148.863 325.945 c 149.008
 325.945 149.203 325.965 149.453 326.008 c h
153.598 326.008 m 153.785 324.82 l 153.41 324.746 153.074 324.707 152.773
 324.707 c 152.289 324.707 151.914 324.781 151.648 324.934 c 151.383 325.09
 151.195 325.289 151.086 325.531 c 150.977 325.781 150.926 326.312 150.926
 327.121 c 150.926 331.645 l 149.938 331.645 l 149.938 332.695 l 150.926
 332.695 l 150.926 334.645 l 152.25 335.445 l 152.25 332.695 l 153.598 332.695
 l 153.598 331.645 l 152.25 331.645 l 152.25 327.043 l 152.25 326.66 152.27
 326.414 152.312 326.309 c 152.363 326.199 152.441 326.113 152.551 326.043
 c 152.656 325.977 152.812 325.945 153.012 325.945 c 153.152 325.945 153.348
 325.965 153.598 326.008 c h
160.219 327.344 m 161.594 327.168 l 161.379 326.371 160.977 325.746 160.383
 325.293 c 159.801 324.852 159.051 324.633 158.133 324.633 c 156.984 324.633
 156.07 324.988 155.395 325.695 c 154.719 326.402 154.383 327.398 154.383
 328.684 c 154.383 330.008 154.719 331.035 155.395 331.77 c 156.078 332.504
 156.965 332.871 158.059 332.871 c 159.117 332.871 159.98 332.512 160.645
 331.793 c 161.312 331.078 161.645 330.066 161.645 328.758 c 161.645 328.684
 161.641 328.566 161.633 328.406 c 155.758 328.406 l 155.809 327.539 156.055
 326.879 156.496 326.418 c 156.938 325.961 157.488 325.73 158.145 325.73
 c 158.629 325.73 159.043 325.855 159.383 326.105 c 159.734 326.367 160.012
 326.777 160.219 327.344 c h
155.832 329.508 m 160.234 329.508 l 160.176 330.164 160.008 330.66 159.734
 330.996 c 159.309 331.512 158.754 331.77 158.07 331.77 c 157.461 331.77
 156.945 331.562 156.52 331.145 c 156.105 330.738 155.875 330.191 155.832
 329.508 c h
163.109 324.809 m 163.109 332.695 l 164.309 332.695 l 164.309 331.496 l
 164.617 332.055 164.898 332.418 165.16 332.594 c 165.418 332.777 165.703
 332.871 166.02 332.871 c 166.473 332.871 166.93 332.723 167.395 332.434
 c 166.934 331.195 l 166.609 331.387 166.281 331.48 165.945 331.48 c 165.656
 331.48 165.391 331.395 165.16 331.219 c 164.934 331.043 164.77 330.805 
164.672 330.496 c 164.52 330.02 164.445 329.5 164.445 328.934 c 164.445 
324.809 l h
171.699 327.156 m 173.027 327.371 l 173.102 326.836 173.305 326.43 173.637
 326.145 c 173.98 325.871 174.453 325.73 175.062 325.73 c 175.68 325.73 
176.133 325.855 176.426 326.105 c 176.727 326.355 176.875 326.648 176.875
 326.98 c 176.875 327.281 176.746 327.52 176.488 327.695 c 176.305 327.812
 175.852 327.961 175.125 328.145 c 174.141 328.395 173.457 328.605 173.074
 328.781 c 172.699 328.965 172.414 329.215 172.215 329.531 c 172.02 329.855
 171.926 330.211 171.926 330.594 c 171.926 330.945 172.004 331.27 172.164
 331.57 c 172.328 331.871 172.551 332.121 172.824 332.32 c 173.035 332.469
 173.316 332.598 173.676 332.707 c 174.035 332.816 174.418 332.871 174.824
 332.871 c 175.449 332.871 175.996 332.777 176.465 332.594 c 176.93 332.418
 177.27 332.18 177.488 331.871 c 177.715 331.57 177.867 331.164 177.949 
330.656 c 176.652 330.48 l 176.594 330.883 176.418 331.195 176.125 331.418
 c 175.844 331.652 175.441 331.77 174.926 331.77 c 174.309 331.77 173.871
 331.664 173.613 331.457 c 173.355 331.258 173.227 331.023 173.227 330.758
 c 173.227 330.582 173.281 330.426 173.387 330.281 c 173.496 330.141 173.668
 330.023 173.902 329.934 c 174.035 329.883 174.426 329.766 175.074 329.582
 c 176.016 329.332 176.676 329.129 177.051 328.969 c 177.426 328.812 177.719
 328.578 177.926 328.27 c 178.141 327.961 178.25 327.578 178.25 327.121 
c 178.25 326.68 178.121 326.258 177.863 325.855 c 177.605 325.465 177.23
 325.16 176.738 324.945 c 176.246 324.738 175.691 324.633 175.074 324.633
 c 174.051 324.633 173.266 324.844 172.727 325.27 c 172.191 325.695 171.852
 326.324 171.699 327.156 c h
179.715 334.156 m 179.715 335.684 l 181.051 335.684 l 181.051 334.156 l
 h
179.715 324.809 m 179.715 332.695 l 181.051 332.695 l 181.051 324.809 l
 h
185.941 326.008 m 186.129 324.82 l 185.754 324.746 185.418 324.707 185.117
 324.707 c 184.633 324.707 184.258 324.781 183.992 324.934 c 183.727 325.09
 183.539 325.289 183.43 325.531 c 183.32 325.781 183.266 326.312 183.266
 327.121 c 183.266 331.645 l 182.277 331.645 l 182.277 332.695 l 183.266
 332.695 l 183.266 334.645 l 184.59 335.445 l 184.59 332.695 l 185.941 332.695
 l 185.941 331.645 l 184.59 331.645 l 184.59 327.043 l 184.59 326.66 184.613
 326.414 184.652 326.309 c 184.703 326.199 184.781 326.113 184.891 326.043
 c 185 325.977 185.152 325.945 185.355 325.945 c 185.496 325.945 185.691
 325.965 185.941 326.008 c h
192.324 324.809 m 192.324 325.969 l 191.719 325.078 190.883 324.633 189.824
 324.633 c 189.367 324.633 188.934 324.719 188.527 324.895 c 188.125 325.078
 187.824 325.305 187.625 325.57 c 187.434 325.836 187.297 326.164 187.215
 326.559 c 187.164 326.824 187.137 327.242 187.137 327.809 c 187.137 332.695
 l 188.477 332.695 l 188.477 328.32 l 188.477 327.621 188.5 327.148 188.551
 326.906 c 188.633 326.559 188.812 326.281 189.09 326.082 c 189.363 325.883
 189.699 325.781 190.102 325.781 c 190.5 325.781 190.875 325.883 191.227
 326.082 c 191.574 326.289 191.82 326.57 191.965 326.918 c 192.113 327.277
 192.188 327.793 192.188 328.469 c 192.188 332.695 l 193.527 332.695 l 193.527
 324.809 l h
200.613 325.781 m 200.113 325.355 199.633 325.059 199.176 324.883 c 198.719
 324.715 198.227 324.633 197.699 324.633 c 196.844 324.633 196.18 324.84
 195.715 325.258 c 195.246 325.684 195.012 326.223 195.012 326.883 c 195.012
 327.273 195.102 327.629 195.277 327.945 c 195.449 328.262 195.68 328.516
 195.965 328.707 c 196.246 328.898 196.566 329.043 196.926 329.145 c 197.191
 329.219 197.59 329.285 198.113 329.344 c 199.195 329.477 199.992 329.633
 200.5 329.809 c 200.5 330.156 l 200.5 330.699 200.375 331.082 200.125 331.309
 c 199.785 331.605 199.277 331.758 198.602 331.758 c 197.977 331.758 197.512
 331.648 197.215 331.434 c 196.914 331.215 196.691 330.824 196.551 330.258
 c 195.238 330.445 l 195.363 331.004 195.559 331.453 195.824 331.793 c 196.102
 332.137 196.492 332.398 197 332.582 c 197.52 332.773 198.117 332.871 198.801
 332.871 c 199.477 332.871 200.023 332.789 200.438 332.633 c 200.855 332.473
 201.164 332.273 201.363 332.031 c 201.562 331.789 201.699 331.488 201.777
 331.121 c 201.824 330.895 201.852 330.488 201.852 329.895 c 201.852 328.105
 l 201.852 326.867 201.875 326.078 201.926 325.746 c 201.984 325.418 202.102
 325.105 202.277 324.809 c 200.875 324.809 l 200.734 325.082 200.648 325.406
 200.613 325.781 c h
200.5 328.758 m 200.02 328.566 199.289 328.398 198.312 328.258 c 197.762
 328.184 197.375 328.094 197.152 327.996 c 196.926 327.895 196.75 327.75
 196.625 327.559 c 196.5 327.367 196.438 327.152 196.438 326.918 c 196.438
 326.562 196.57 326.262 196.84 326.02 c 197.113 325.785 197.508 325.668 
198.027 325.668 c 198.543 325.668 199 325.781 199.402 326.008 c 199.801 
326.242 200.098 326.551 200.289 326.934 c 200.43 327.242 200.5 327.688 200.5
 328.27 c h
206.688 326.008 m 206.875 324.82 l 206.5 324.746 206.164 324.707 205.863
 324.707 c 205.379 324.707 205.004 324.781 204.738 324.934 c 204.473 325.09
 204.285 325.289 204.176 325.531 c 204.066 325.781 204.016 326.312 204.016
 327.121 c 204.016 331.645 l 203.027 331.645 l 203.027 332.695 l 204.016
 332.695 l 204.016 334.645 l 205.34 335.445 l 205.34 332.695 l 206.688 332.695
 l 206.688 331.645 l 205.34 331.645 l 205.34 327.043 l 205.34 326.66 205.359
 326.414 205.402 326.309 c 205.453 326.199 205.531 326.113 205.641 326.043
 c 205.746 325.977 205.902 325.945 206.102 325.945 c 206.242 325.945 206.438
 325.965 206.688 326.008 c h
207.922 334.156 m 207.922 335.684 l 209.262 335.684 l 209.262 334.156 l
 h
207.922 324.809 m 207.922 332.695 l 209.262 332.695 l 209.262 324.809 l
 h
210.727 328.746 m 210.727 330.203 211.137 331.285 211.953 331.996 c 212.625
 332.578 213.453 332.871 214.426 332.871 c 215.512 332.871 216.395 332.512
 217.078 331.793 c 217.77 331.086 218.113 330.105 218.113 328.855 c 218.113
 327.84 217.961 327.039 217.652 326.457 c 217.352 325.883 216.91 325.434
 216.328 325.105 c 215.75 324.789 215.117 324.633 214.426 324.633 c 213.328
 324.633 212.434 324.988 211.75 325.695 c 211.066 326.402 210.727 327.418
 210.727 328.746 c h
212.102 328.746 m 212.102 327.738 212.324 326.98 212.766 326.48 c 213.207
 325.98 213.762 325.73 214.426 325.73 c 215.094 325.73 215.645 325.98 216.078
 326.48 c 216.52 326.992 216.738 327.762 216.738 328.793 c 216.738 329.77
 216.52 330.508 216.078 331.008 c 215.637 331.508 215.086 331.758 214.426
 331.758 c 213.762 331.758 213.207 331.508 212.766 331.008 c 212.324 330.508
 212.102 329.754 212.102 328.746 c h
219.527 324.809 m 219.527 332.695 l 220.727 332.695 l 220.727 331.57 l 
221.312 332.438 222.148 332.871 223.238 332.871 c 223.715 332.871 224.152
 332.781 224.551 332.605 c 224.953 332.441 225.25 332.215 225.441 331.934
 c 225.641 331.656 225.781 331.332 225.863 330.957 c 225.914 330.707 225.941
 330.273 225.941 329.656 c 225.941 324.809 l 224.602 324.809 l 224.602 329.605
 l 224.602 330.148 224.547 330.555 224.441 330.82 c 224.34 331.094 224.156
 331.312 223.891 331.469 c 223.625 331.629 223.312 331.707 222.953 331.707
 c 222.387 331.707 221.895 331.527 221.477 331.168 c 221.07 330.812 220.863
 330.125 220.863 329.105 c 220.863 324.809 l h
f
0.811765 0.886275 0.952941 rg
383.086 345.562 m 383.086 349.766 386.492 353.172 390.695 353.172 c 633.266
 353.172 l 635.285 353.172 637.219 352.371 638.648 350.941 c 640.074 349.516
 640.875 347.582 640.875 345.562 c 640.875 315.125 l 640.875 310.922 637.469
 307.516 633.266 307.516 c 390.695 307.516 l 386.492 307.516 383.086 310.922
 383.086 315.125 c h
f
0 g
q 1 0 0 -1 0 576 cm
383.086 230.438 m 383.086 226.234 386.492 222.828 390.695 222.828 c 633.266
 222.828 l 635.285 222.828 637.219 223.629 638.648 225.059 c 640.074 226.484
 640.875 228.418 640.875 230.438 c 640.875 260.875 l 640.875 265.078 637.469
 268.484 633.266 268.484 c 390.695 268.484 l 386.492 268.484 383.086 265.078
 383.086 260.875 c h
S Q
465.703 324.809 m 462.816 335.684 l 464.293 335.684 l 465.941 328.559 l
 466.125 327.809 466.281 327.066 466.406 326.332 c 466.68 327.492 466.844
 328.16 466.891 328.344 c 468.969 335.684 l 470.703 335.684 l 472.266 330.184
 l 472.66 328.816 472.938 327.531 473.105 326.332 c 473.246 327.016 473.43
 327.805 473.656 328.695 c 475.355 335.684 l 476.805 335.684 l 473.816 324.809
 l 472.43 324.809 l 470.141 333.094 l 469.949 333.785 469.836 334.211 469.805
 334.371 c 469.688 333.871 469.578 333.445 469.48 333.094 c 467.168 324.809
 l h
477.215 328.746 m 477.215 330.203 477.625 331.285 478.441 331.996 c 479.117
 332.578 479.941 332.871 480.918 332.871 c 482 332.871 482.883 332.512 483.566
 331.793 c 484.258 331.086 484.605 330.105 484.605 328.855 c 484.605 327.84
 484.449 327.039 484.141 326.457 c 483.84 325.883 483.398 325.434 482.816
 325.105 c 482.242 324.789 481.609 324.633 480.918 324.633 c 479.816 324.633
 478.926 324.988 478.242 325.695 c 477.559 326.402 477.215 327.418 477.215
 328.746 c h
478.59 328.746 m 478.59 327.738 478.812 326.98 479.254 326.48 c 479.695
 325.98 480.25 325.73 480.918 325.73 c 481.582 325.73 482.133 325.98 482.566
 326.48 c 483.008 326.992 483.23 327.762 483.23 328.793 c 483.23 329.77 
483.008 330.508 482.566 331.008 c 482.125 331.508 481.574 331.758 480.918
 331.758 c 480.25 331.758 479.695 331.508 479.254 331.008 c 478.812 330.508
 478.59 329.754 478.59 328.746 c h
486.004 324.809 m 486.004 332.695 l 487.203 332.695 l 487.203 331.496 l
 487.512 332.055 487.797 332.418 488.055 332.594 c 488.312 332.777 488.602
 332.871 488.918 332.871 c 489.367 332.871 489.824 332.723 490.293 332.434
 c 489.828 331.195 l 489.504 331.387 489.176 331.48 488.844 331.48 c 488.551
 331.48 488.289 331.395 488.055 331.219 c 487.828 331.043 487.668 330.805
 487.566 330.496 c 487.418 330.02 487.344 329.5 487.344 328.934 c 487.344
 324.809 l h
490.449 327.156 m 491.773 327.371 l 491.848 326.836 492.055 326.43 492.387
 326.145 c 492.73 325.871 493.203 325.73 493.812 325.73 c 494.43 325.73 
494.883 325.855 495.176 326.105 c 495.473 326.355 495.625 326.648 495.625
 326.98 c 495.625 327.281 495.496 327.52 495.238 327.695 c 495.055 327.812
 494.598 327.961 493.875 328.145 c 492.891 328.395 492.207 328.605 491.824
 328.781 c 491.449 328.965 491.16 329.215 490.961 329.531 c 490.77 329.855
 490.676 330.211 490.676 330.594 c 490.676 330.945 490.754 331.27 490.91
 331.57 c 491.078 331.871 491.301 332.121 491.574 332.32 c 491.781 332.469
 492.066 332.598 492.426 332.707 c 492.781 332.816 493.168 332.871 493.574
 332.871 c 494.199 332.871 494.746 332.777 495.211 332.594 c 495.68 332.418
 496.02 332.18 496.238 331.871 c 496.461 331.57 496.617 331.164 496.699 
330.656 c 495.398 330.48 l 495.34 330.883 495.168 331.195 494.875 331.418
 c 494.59 331.652 494.191 331.77 493.676 331.77 c 493.059 331.77 492.621
 331.664 492.363 331.457 c 492.105 331.258 491.973 331.023 491.973 330.758
 c 491.973 330.582 492.027 330.426 492.137 330.281 c 492.246 330.141 492.418
 330.023 492.648 329.934 c 492.781 329.883 493.176 329.766 493.824 329.582
 c 494.766 329.332 495.426 329.129 495.801 328.969 c 496.176 328.812 496.465
 328.578 496.676 328.27 c 496.891 327.961 497 327.578 497 327.121 c 497 
326.68 496.871 326.258 496.613 325.855 c 496.355 325.465 495.98 325.16 495.488
 324.945 c 494.996 324.738 494.441 324.633 493.824 324.633 c 492.801 324.633
 492.016 324.844 491.473 325.27 c 490.941 325.695 490.598 326.324 490.449
 327.156 c h
501.375 326.008 m 501.562 324.82 l 501.188 324.746 500.848 324.707 500.551
 324.707 c 500.066 324.707 499.691 324.781 499.426 324.934 c 499.156 325.09
 498.969 325.289 498.863 325.531 c 498.754 325.781 498.699 326.312 498.699
 327.121 c 498.699 331.645 l 497.711 331.645 l 497.711 332.695 l 498.699
 332.695 l 498.699 334.645 l 500.023 335.445 l 500.023 332.695 l 501.375
 332.695 l 501.375 331.645 l 500.023 331.645 l 500.023 327.043 l 500.023
 326.66 500.047 326.414 500.086 326.309 c 500.137 326.199 500.215 326.113
 500.324 326.043 c 500.434 325.977 500.586 325.945 500.785 325.945 c 500.93
 325.945 501.125 325.965 501.375 326.008 c h
506.207 327.156 m 507.531 327.371 l 507.605 326.836 507.809 326.43 508.145
 326.145 c 508.484 325.871 508.961 325.73 509.566 325.73 c 510.184 325.73
 510.641 325.855 510.93 326.105 c 511.23 326.355 511.379 326.648 511.379
 326.98 c 511.379 327.281 511.25 327.52 510.992 327.695 c 510.809 327.812
 510.355 327.961 509.629 328.145 c 508.648 328.395 507.965 328.605 507.582
 328.781 c 507.207 328.965 506.918 329.215 506.719 329.531 c 506.527 329.855
 506.43 330.211 506.43 330.594 c 506.43 330.945 506.508 331.27 506.668 331.57
 c 506.836 331.871 507.055 332.121 507.332 332.32 c 507.539 332.469 507.82
 332.598 508.18 332.707 c 508.539 332.816 508.922 332.871 509.332 332.871
 c 509.957 332.871 510.5 332.777 510.969 332.594 c 511.434 332.418 511.777
 332.18 511.992 331.871 c 512.219 331.57 512.371 331.164 512.457 330.656
 c 511.156 330.48 l 511.098 330.883 510.922 331.195 510.629 331.418 c 510.348
 331.652 509.945 331.77 509.43 331.77 c 508.812 331.77 508.375 331.664 508.117
 331.457 c 507.859 331.258 507.73 331.023 507.73 330.758 c 507.73 330.582
 507.785 330.426 507.895 330.281 c 508 330.141 508.172 330.023 508.406 329.934
 c 508.539 329.883 508.93 329.766 509.582 329.582 c 510.523 329.332 511.18
 329.129 511.555 328.969 c 511.93 328.812 512.223 328.578 512.43 328.27 
c 512.648 327.961 512.754 327.578 512.754 327.121 c 512.754 326.68 512.625
 326.258 512.367 325.855 c 512.109 325.465 511.734 325.16 511.242 324.945
 c 510.75 324.738 510.195 324.633 509.582 324.633 c 508.555 324.633 507.773
 324.844 507.23 325.27 c 506.695 325.695 506.355 326.324 506.207 327.156
 c h
514.219 334.156 m 514.219 335.684 l 515.555 335.684 l 515.555 334.156 l
 h
514.219 324.809 m 514.219 332.695 l 515.555 332.695 l 515.555 324.809 l
 h
520.445 326.008 m 520.633 324.82 l 520.258 324.746 519.922 324.707 519.621
 324.707 c 519.137 324.707 518.762 324.781 518.496 324.934 c 518.23 325.09
 518.043 325.289 517.934 325.531 c 517.824 325.781 517.77 326.312 517.77
 327.121 c 517.77 331.645 l 516.785 331.645 l 516.785 332.695 l 517.77 332.695
 l 517.77 334.645 l 519.098 335.445 l 519.098 332.695 l 520.445 332.695 
l 520.445 331.645 l 519.098 331.645 l 519.098 327.043 l 519.098 326.66 519.117
 326.414 519.16 326.309 c 519.207 326.199 519.289 326.113 519.395 326.043
 c 519.504 325.977 519.66 325.945 519.859 325.945 c 520 325.945 520.195 
325.965 520.445 326.008 c h
526.832 324.809 m 526.832 325.969 l 526.223 325.078 525.391 324.633 524.332
 324.633 c 523.871 324.633 523.438 324.719 523.031 324.895 c 522.629 325.078
 522.332 325.305 522.129 325.57 c 521.938 325.836 521.801 326.164 521.719
 326.559 c 521.668 326.824 521.645 327.242 521.645 327.809 c 521.645 332.695
 l 522.98 332.695 l 522.98 328.32 l 522.98 327.621 523.004 327.148 523.055
 326.906 c 523.141 326.559 523.316 326.281 523.594 326.082 c 523.867 325.883
 524.207 325.781 524.605 325.781 c 525.004 325.781 525.379 325.883 525.73
 326.082 c 526.082 326.289 526.328 326.57 526.469 326.918 c 526.617 327.277
 526.691 327.793 526.691 328.469 c 526.691 332.695 l 528.031 332.695 l 528.031
 324.809 l h
535.117 325.781 m 534.617 325.355 534.141 325.059 533.68 324.883 c 533.223
 324.715 532.73 324.633 532.207 324.633 c 531.348 324.633 530.684 324.84
 530.219 325.258 c 529.75 325.684 529.52 326.223 529.52 326.883 c 529.52
 327.273 529.605 327.629 529.781 327.945 c 529.957 328.262 530.184 328.516
 530.469 328.707 c 530.75 328.898 531.074 329.043 531.43 329.145 c 531.699
 329.219 532.094 329.285 532.617 329.344 c 533.703 329.477 534.496 329.633
 535.008 329.809 c 535.008 330.156 l 535.008 330.699 534.883 331.082 534.633
 331.309 c 534.289 331.605 533.781 331.758 533.105 331.758 c 532.48 331.758
 532.02 331.648 531.719 331.434 c 531.418 331.215 531.199 330.824 531.055
 330.258 c 529.742 330.445 l 529.867 331.004 530.062 331.453 530.332 331.793
 c 530.605 332.137 530.996 332.398 531.508 332.582 c 532.023 332.773 532.621
 332.871 533.305 332.871 c 533.98 332.871 534.527 332.789 534.945 332.633
 c 535.359 332.473 535.668 332.273 535.867 332.031 c 536.07 331.789 536.207
 331.488 536.281 331.121 c 536.332 330.895 536.355 330.488 536.355 329.895
 c 536.355 328.105 l 536.355 326.867 536.383 326.078 536.43 325.746 c 536.488
 325.418 536.605 325.105 536.781 324.809 c 535.383 324.809 l 535.238 325.082
 535.152 325.406 535.117 325.781 c h
535.008 328.758 m 534.523 328.566 533.793 328.398 532.82 328.258 c 532.27
 328.184 531.883 328.094 531.656 327.996 c 531.43 327.895 531.258 327.75
 531.133 327.559 c 531.008 327.367 530.945 327.152 530.945 326.918 c 530.945
 326.562 531.078 326.262 531.344 326.02 c 531.617 325.785 532.016 325.668
 532.531 325.668 c 533.047 325.668 533.508 325.781 533.906 326.008 c 534.305
 326.242 534.602 326.551 534.793 326.934 c 534.934 327.242 535.008 327.688
 535.008 328.27 c h
541.195 326.008 m 541.383 324.82 l 541.008 324.746 540.668 324.707 540.367
 324.707 c 539.887 324.707 539.512 324.781 539.242 324.934 c 538.977 325.09
 538.789 325.289 538.68 325.531 c 538.574 325.781 538.52 326.312 538.52 
327.121 c 538.52 331.645 l 537.531 331.645 l 537.531 332.695 l 538.52 332.695
 l 538.52 334.645 l 539.844 335.445 l 539.844 332.695 l 541.195 332.695 
l 541.195 331.645 l 539.844 331.645 l 539.844 327.043 l 539.844 326.66 539.863
 326.414 539.906 326.309 c 539.957 326.199 540.035 326.113 540.145 326.043
 c 540.254 325.977 540.406 325.945 540.605 325.945 c 540.75 325.945 540.945
 325.965 541.195 326.008 c h
542.43 334.156 m 542.43 335.684 l 543.766 335.684 l 543.766 334.156 l h
542.43 324.809 m 542.43 332.695 l 543.766 332.695 l 543.766 324.809 l h
545.23 328.746 m 545.23 330.203 545.641 331.285 546.457 331.996 c 547.133
 332.578 547.957 332.871 548.93 332.871 c 550.016 332.871 550.898 332.512
 551.582 331.793 c 552.273 331.086 552.617 330.105 552.617 328.855 c 552.617
 327.84 552.465 327.039 552.156 326.457 c 551.855 325.883 551.414 325.434
 550.832 325.105 c 550.258 324.789 549.625 324.633 548.93 324.633 c 547.832
 324.633 546.941 324.988 546.258 325.695 c 545.574 326.402 545.23 327.418
 545.23 328.746 c h
546.605 328.746 m 546.605 327.738 546.828 326.98 547.27 326.48 c 547.711
 325.98 548.266 325.73 548.93 325.73 c 549.598 325.73 550.148 325.98 550.582
 326.48 c 551.023 326.992 551.242 327.762 551.242 328.793 c 551.242 329.77
 551.023 330.508 550.582 331.008 c 550.141 331.508 549.59 331.758 548.93
 331.758 c 548.266 331.758 547.711 331.508 547.27 331.008 c 546.828 330.508
 546.605 329.754 546.605 328.746 c h
554.031 324.809 m 554.031 332.695 l 555.23 332.695 l 555.23 331.57 l 555.816
 332.438 556.652 332.871 557.746 332.871 c 558.219 332.871 558.656 332.781
 559.059 332.605 c 559.457 332.441 559.754 332.215 559.945 331.934 c 560.145
 331.656 560.285 331.332 560.371 330.957 c 560.418 330.707 560.445 330.273
 560.445 329.656 c 560.445 324.809 l 559.105 324.809 l 559.105 329.605 l
 559.105 330.148 559.055 330.555 558.945 330.82 c 558.844 331.094 558.66
 331.312 558.395 331.469 c 558.129 331.629 557.816 331.707 557.457 331.707
 c 556.891 331.707 556.398 331.527 555.98 331.168 c 555.574 330.812 555.371
 330.125 555.371 329.105 c 555.371 324.809 l h
f
q 1 0 0 -1 0 576 cm
337.051 135.566 m 185.477 218.23 l S Q
184.211 360.09 m 179.102 354.293 l 186.742 355.449 l h
f*
0 j
q 1 0 0 -1 0 576 cm
184.211 215.91 m 179.102 221.707 l 186.742 220.551 l h
S Q
1 j
q 1 0 0 -1 0 576 cm
337.051 135.566 m 503.391 218.543 l S Q
502.211 355.094 m 509.887 354.215 l 504.57 359.82 l h
f*
0 j
q 1 0 0 -1 0 576 cm
502.211 220.906 m 509.887 221.785 l 504.57 216.18 l h
S Q
1 j
[ 1.6 4.8] 0 d
q 1 0 0 -1 0 576 cm
177.051 268.484 m 177.031 307.211 l S Q
174.387 268.789 m 177.027 261.527 l 179.672 268.785 l h
f*
0 j
[] 0.0 d
q 1 0 0 -1 0 576 cm
174.387 307.211 m 177.027 314.473 l 179.672 307.215 l h
S Q
1 j
[ 1.6 4.8] 0 d
q 1 0 0 -1 0 576 cm
511.992 268.484 m 511.973 307.211 l S Q
509.332 268.789 m 511.969 261.527 l 514.617 268.785 l h
f*
0 j
[] 0.0 d
q 1 0 0 -1 0 576 cm
509.332 307.211 m 511.969 314.473 l 514.617 307.215 l h
S Q
142.641 237.652 m 142.641 238.812 l 142.031 237.922 141.199 237.477 140.141
 237.477 c 139.68 237.477 139.246 237.562 138.84 237.738 c 138.438 237.922
 138.141 238.148 137.938 238.414 c 137.746 238.68 137.609 239.008 137.527
 239.402 c 137.477 239.668 137.453 240.086 137.453 240.652 c 137.453 245.539
 l 138.789 245.539 l 138.789 241.164 l 138.789 240.465 138.812 239.992 138.863
 239.75 c 138.949 239.402 139.125 239.125 139.402 238.926 c 139.676 238.727
 140.016 238.625 140.414 238.625 c 140.812 238.625 141.188 238.727 141.539
 238.926 c 141.891 239.133 142.137 239.414 142.277 239.766 c 142.426 240.121
 142.5 240.641 142.5 241.312 c 142.5 245.539 l 143.84 245.539 l 143.84 237.652
 l h
145.777 234.625 m 145.777 245.539 l 147.004 245.539 l 147.004 244.516 l
 147.285 244.914 147.605 245.215 147.965 245.414 c 148.332 245.613 148.77
 245.715 149.277 245.715 c 149.953 245.715 150.547 245.539 151.066 245.188
 c 151.582 244.848 151.969 244.359 152.227 243.727 c 152.492 243.094 152.629
 242.402 152.629 241.652 c 152.629 240.844 152.48 240.113 152.191 239.465
 c 151.898 238.82 151.477 238.332 150.926 237.988 c 150.379 237.648 149.797
 237.477 149.191 237.477 c 148.738 237.477 148.336 237.566 147.977 237.75
 c 147.629 237.941 147.34 238.18 147.113 238.465 c 147.113 234.625 l h
146.988 241.551 m 146.988 240.535 147.195 239.785 147.602 239.301 c 148.02
 238.816 148.52 238.578 149.102 238.578 c 149.695 238.578 150.199 238.828
 150.613 239.328 c 151.039 239.828 151.254 240.605 151.254 241.664 c 151.254
 242.664 151.043 243.414 150.629 243.914 c 150.219 244.414 149.727 244.664
 149.152 244.664 c 148.586 244.664 148.082 244.398 147.641 243.863 c 147.207
 243.332 146.988 242.559 146.988 241.551 c h
159.191 237.652 m 159.191 238.652 l 158.691 237.867 157.957 237.477 156.992
 237.477 c 156.367 237.477 155.785 237.648 155.254 237.988 c 154.727 238.34
 154.32 238.82 154.027 239.438 c 153.746 240.062 153.602 240.781 153.602
 241.59 c 153.602 242.371 153.73 243.086 153.992 243.727 c 154.258 244.367
 154.648 244.859 155.164 245.203 c 155.691 245.543 156.277 245.715 156.93
 245.715 c 157.402 245.715 157.824 245.613 158.191 245.414 c 158.566 245.215
 158.871 244.953 159.102 244.625 c 159.102 248.527 l 160.43 248.527 l 160.43
 237.652 l h
154.965 241.59 m 154.965 240.582 155.18 239.828 155.602 239.328 c 156.035
 238.828 156.539 238.578 157.117 238.578 c 157.699 238.578 158.195 238.812
 158.602 239.289 c 159.012 239.766 159.215 240.492 159.215 241.477 c 159.215
 242.551 159.008 243.34 158.59 243.84 c 158.172 244.348 157.66 244.602 157.055
 244.602 c 156.461 244.602 155.965 244.359 155.566 243.875 c 155.164 243.395
 154.965 242.629 154.965 241.59 c h
167.527 238.625 m 167.027 238.203 166.551 237.902 166.09 237.727 c 165.633
 237.559 165.141 237.477 164.617 237.477 c 163.758 237.477 163.094 237.684
 162.629 238.102 c 162.16 238.527 161.93 239.066 161.93 239.727 c 161.93
 240.117 162.016 240.473 162.191 240.789 c 162.367 241.105 162.594 241.359
 162.879 241.551 c 163.16 241.742 163.484 241.891 163.84 241.988 c 164.109
 242.062 164.504 242.129 165.027 242.188 c 166.113 242.32 166.906 242.477
 167.414 242.652 c 167.414 243 l 167.414 243.543 167.289 243.926 167.039
 244.152 c 166.699 244.453 166.191 244.602 165.516 244.602 c 164.891 244.602
 164.43 244.492 164.129 244.277 c 163.828 244.059 163.609 243.668 163.465
 243.102 c 162.152 243.289 l 162.277 243.848 162.473 244.297 162.742 244.641
 c 163.016 244.98 163.406 245.242 163.914 245.426 c 164.434 245.617 165.031
 245.715 165.715 245.715 c 166.391 245.715 166.938 245.633 167.352 245.477
 c 167.77 245.316 168.078 245.117 168.277 244.875 c 168.477 244.633 168.617
 244.332 168.691 243.965 c 168.742 243.738 168.766 243.332 168.766 242.738
 c 168.766 240.953 l 168.766 239.711 168.789 238.922 168.84 238.59 c 168.898
 238.266 169.016 237.953 169.191 237.652 c 167.789 237.652 l 167.648 237.926
 167.562 238.25 167.527 238.625 c h
167.414 241.602 m 166.934 241.41 166.203 241.242 165.227 241.102 c 164.68
 241.027 164.289 240.938 164.066 240.84 c 163.84 240.738 163.664 240.594
 163.539 240.402 c 163.414 240.211 163.352 239.996 163.352 239.766 c 163.352
 239.406 163.488 239.105 163.754 238.863 c 164.027 238.629 164.426 238.516
 164.941 238.516 c 165.457 238.516 165.914 238.625 166.316 238.852 c 166.715
 239.086 167.012 239.395 167.203 239.777 c 167.344 240.086 167.414 240.531
 167.414 241.113 c h
173.605 238.852 m 173.793 237.664 l 173.418 237.59 173.078 237.551 172.777
 237.551 c 172.297 237.551 171.922 237.625 171.652 237.777 c 171.387 237.934
 171.199 238.133 171.09 238.375 c 170.984 238.625 170.93 239.156 170.93 
239.965 c 170.93 244.488 l 169.941 244.488 l 169.941 245.539 l 170.93 245.539
 l 170.93 247.488 l 172.254 248.289 l 172.254 245.539 l 173.605 245.539 
l 173.605 244.488 l 172.254 244.488 l 172.254 239.891 l 172.254 239.504 
172.273 239.258 172.316 239.152 c 172.367 239.043 172.445 238.957 172.555
 238.891 c 172.664 238.82 172.816 238.789 173.016 238.789 c 173.156 238.789
 173.355 238.809 173.605 238.852 c h
180.227 240.188 m 181.602 240.016 l 181.383 239.215 180.98 238.59 180.387
 238.141 c 179.805 237.695 179.055 237.477 178.137 237.477 c 176.988 237.477
 176.074 237.832 175.402 238.539 c 174.727 239.246 174.387 240.242 174.387
 241.527 c 174.387 242.852 174.727 243.879 175.402 244.613 c 176.082 245.348
 176.973 245.715 178.062 245.715 c 179.121 245.715 179.984 245.355 180.652
 244.641 c 181.316 243.922 181.652 242.91 181.652 241.602 c 181.652 241.527
 181.645 241.41 181.637 241.25 c 175.762 241.25 l 175.812 240.383 176.059
 239.723 176.5 239.266 c 176.941 238.805 177.492 238.578 178.152 238.578
 c 178.633 238.578 179.047 238.703 179.387 238.953 c 179.738 239.211 180.016
 239.621 180.227 240.188 c h
175.84 242.352 m 180.238 242.352 l 180.18 243.008 180.012 243.504 179.738
 243.84 c 179.312 244.355 178.758 244.613 178.074 244.613 c 177.469 244.613
 176.949 244.406 176.527 243.988 c 176.109 243.582 175.879 243.035 175.84
 242.352 c h
186.961 241.152 m 188.309 241.266 l 188.379 240.723 188.527 240.277 188.762
 239.926 c 188.992 239.578 189.355 239.293 189.848 239.078 c 190.348 238.859
 190.906 238.75 191.523 238.75 c 192.074 238.75 192.555 238.836 192.973 
239 c 193.398 239.168 193.715 239.395 193.922 239.676 c 194.133 239.961 
194.234 240.27 194.234 240.602 c 194.234 240.941 194.137 241.238 193.934
 241.488 c 193.734 241.746 193.406 241.965 192.949 242.141 c 192.656 242.254
 192.012 242.43 191.012 242.664 c 190.012 242.906 189.309 243.133 188.91
 243.352 c 188.395 243.625 188.008 243.965 187.746 244.363 c 187.496 244.766
 187.371 245.215 187.371 245.715 c 187.371 246.266 187.527 246.777 187.836
 247.25 c 188.152 247.734 188.605 248.098 189.199 248.34 c 189.797 248.59
 190.465 248.715 191.199 248.715 c 192.008 248.715 192.719 248.586 193.336
 248.328 c 193.953 248.066 194.422 247.684 194.746 247.176 c 195.082 246.676
 195.262 246.105 195.285 245.465 c 193.91 245.363 l 193.836 246.047 193.582
 246.562 193.148 246.914 c 192.723 247.273 192.094 247.453 191.262 247.453
 c 190.395 247.453 189.762 247.289 189.359 246.965 c 188.961 246.648 188.762
 246.266 188.762 245.812 c 188.762 245.422 188.902 245.102 189.184 244.852
 c 189.461 244.602 190.18 244.344 191.348 244.078 c 192.523 243.809 193.328
 243.578 193.762 243.375 c 194.395 243.086 194.859 242.715 195.16 242.266
 c 195.469 241.82 195.621 241.309 195.621 240.727 c 195.621 240.145 195.457
 239.594 195.121 239.078 c 194.789 238.566 194.309 238.172 193.684 237.891
 c 193.07 237.605 192.371 237.465 191.598 237.465 c 190.613 237.465 189.789
 237.605 189.121 237.891 c 188.457 238.18 187.93 238.613 187.547 239.188
 c 187.172 239.766 186.977 240.418 186.961 241.152 c h
203.879 238.938 m 203.879 237.652 l 196.691 237.652 l 196.684 237.977 196.73
 238.285 196.84 238.578 c 197.023 239.066 197.316 239.551 197.715 240.027
 c 198.125 240.5 198.707 241.051 199.465 241.676 c 200.648 242.645 201.449
 243.41 201.863 243.977 c 202.281 244.543 202.488 245.082 202.488 245.59
 c 202.488 246.113 202.297 246.559 201.914 246.926 c 201.539 247.293 201.047
 247.477 200.441 247.477 c 199.797 247.477 199.281 247.281 198.891 246.891
 c 198.508 246.504 198.316 245.973 198.316 245.289 c 196.941 245.426 l 197.031
 246.453 197.387 247.23 198.004 247.766 c 198.621 248.305 199.445 248.578
 200.477 248.578 c 201.52 248.578 202.344 248.285 202.953 247.703 c 203.562
 247.125 203.863 246.41 203.863 245.551 c 203.863 245.117 203.773 244.688
 203.59 244.266 c 203.414 243.848 203.121 243.406 202.703 242.938 c 202.293
 242.48 201.609 241.844 200.652 241.027 c 199.852 240.352 199.336 239.895
 199.102 239.652 c 198.879 239.418 198.691 239.18 198.539 238.938 c h
f
437.016 237.652 m 437.016 238.812 l 436.406 237.922 435.574 237.477 434.516
 237.477 c 434.059 237.477 433.625 237.562 433.215 237.738 c 432.816 237.922
 432.516 238.148 432.316 238.414 c 432.125 238.68 431.988 239.008 431.902
 239.402 c 431.855 239.668 431.828 240.086 431.828 240.652 c 431.828 245.539
 l 433.168 245.539 l 433.168 241.164 l 433.168 240.465 433.191 239.992 433.242
 239.75 c 433.324 239.402 433.504 239.125 433.777 238.926 c 434.055 238.727
 434.391 238.625 434.793 238.625 c 435.191 238.625 435.566 238.727 435.918
 238.926 c 436.266 239.133 436.512 239.414 436.652 239.766 c 436.805 240.121
 436.879 240.641 436.879 241.312 c 436.879 245.539 l 438.215 245.539 l 438.215
 237.652 l h
440.152 234.625 m 440.152 245.539 l 441.379 245.539 l 441.379 244.516 l
 441.664 244.914 441.984 245.215 442.34 245.414 c 442.707 245.613 443.145
 245.715 443.652 245.715 c 444.328 245.715 444.926 245.539 445.441 245.188
 c 445.957 244.848 446.348 244.359 446.605 243.727 c 446.871 243.094 447.004
 242.402 447.004 241.652 c 447.004 240.844 446.859 240.113 446.566 239.465
 c 446.273 238.82 445.855 238.332 445.305 237.988 c 444.754 237.648 444.176
 237.477 443.566 237.477 c 443.117 237.477 442.711 237.566 442.355 237.75
 c 442.004 237.941 441.715 238.18 441.492 238.465 c 441.492 234.625 l h
441.367 241.551 m 441.367 240.535 441.57 239.785 441.98 239.301 c 442.395
 238.816 442.895 238.578 443.48 238.578 c 444.07 238.578 444.574 238.828
 444.992 239.328 c 445.418 239.828 445.629 240.605 445.629 241.664 c 445.629
 242.664 445.422 243.414 445.004 243.914 c 444.598 244.414 444.105 244.664
 443.527 244.664 c 442.961 244.664 442.457 244.398 442.016 243.863 c 441.582
 243.332 441.367 242.559 441.367 241.551 c h
453.566 237.652 m 453.566 238.652 l 453.066 237.867 452.332 237.477 451.367
 237.477 c 450.742 237.477 450.164 237.648 449.629 237.988 c 449.105 238.34
 448.695 238.82 448.406 239.438 c 448.121 240.062 447.98 240.781 447.98 
241.59 c 447.98 242.371 448.109 243.086 448.367 243.727 c 448.633 244.367
 449.027 244.859 449.543 245.203 c 450.066 245.543 450.656 245.715 451.305
 245.715 c 451.781 245.715 452.199 245.613 452.566 245.414 c 452.941 245.215
 453.246 244.953 453.48 244.625 c 453.48 248.527 l 454.805 248.527 l 454.805
 237.652 l h
449.344 241.59 m 449.344 240.582 449.555 239.828 449.98 239.328 c 450.414
 238.828 450.918 238.578 451.492 238.578 c 452.074 238.578 452.57 238.812
 452.98 239.289 c 453.387 239.766 453.594 240.492 453.594 241.477 c 453.594
 242.551 453.383 243.34 452.969 243.84 c 452.551 244.348 452.039 244.602
 451.43 244.602 c 450.84 244.602 450.344 244.359 449.941 243.875 c 449.543
 243.395 449.344 242.629 449.344 241.59 c h
461.906 238.625 m 461.406 238.203 460.926 237.902 460.469 237.727 c 460.008
 237.559 459.52 237.477 458.992 237.477 c 458.133 237.477 457.473 237.684
 457.004 238.102 c 456.539 238.527 456.305 239.066 456.305 239.727 c 456.305
 240.117 456.395 240.473 456.566 240.789 c 456.742 241.105 456.973 241.359
 457.254 241.551 c 457.539 241.742 457.859 241.891 458.219 241.988 c 458.484
 242.062 458.879 242.129 459.406 242.188 c 460.488 242.32 461.285 242.477
 461.793 242.652 c 461.793 243 l 461.793 243.543 461.668 243.926 461.418
 244.152 c 461.074 244.453 460.566 244.602 459.895 244.602 c 459.27 244.602
 458.805 244.492 458.504 244.277 c 458.207 244.059 457.984 243.668 457.844
 243.102 c 456.531 243.289 l 456.656 243.848 456.852 244.297 457.117 244.641
 c 457.395 244.98 457.785 245.242 458.293 245.426 c 458.809 245.617 459.41
 245.715 460.094 245.715 c 460.77 245.715 461.312 245.633 461.73 245.477
 c 462.148 245.316 462.457 245.117 462.656 244.875 c 462.855 244.633 462.992
 244.332 463.066 243.965 c 463.117 243.738 463.145 243.332 463.145 242.738
 c 463.145 240.953 l 463.145 239.711 463.168 238.922 463.219 238.59 c 463.277
 238.266 463.395 237.953 463.566 237.652 c 462.168 237.652 l 462.027 237.926
 461.938 238.25 461.906 238.625 c h
461.793 241.602 m 461.309 241.41 460.582 241.242 459.605 241.102 c 459.055
 241.027 458.668 240.938 458.441 240.84 c 458.219 240.738 458.043 240.594
 457.918 240.402 c 457.793 240.211 457.73 239.996 457.73 239.766 c 457.73
 239.406 457.863 239.105 458.129 238.863 c 458.406 238.629 458.801 238.516
 459.316 238.516 c 459.836 238.516 460.293 238.625 460.691 238.852 c 461.094
 239.086 461.387 239.395 461.582 239.777 c 461.723 240.086 461.793 240.531
 461.793 241.113 c h
467.98 238.852 m 468.168 237.664 l 467.793 237.59 467.457 237.551 467.156
 237.551 c 466.672 237.551 466.297 237.625 466.031 237.777 c 465.766 237.934
 465.578 238.133 465.469 238.375 c 465.359 238.625 465.305 239.156 465.305
 239.965 c 465.305 244.488 l 464.32 244.488 l 464.32 245.539 l 465.305 245.539
 l 465.305 247.488 l 466.633 248.289 l 466.633 245.539 l 467.98 245.539 
l 467.98 244.488 l 466.633 244.488 l 466.633 239.891 l 466.633 239.504 466.652
 239.258 466.695 239.152 c 466.742 239.043 466.824 238.957 466.93 238.891
 c 467.039 238.82 467.195 238.789 467.395 238.789 c 467.535 238.789 467.73
 238.809 467.98 238.852 c h
474.602 240.188 m 475.977 240.016 l 475.762 239.215 475.355 238.59 474.766
 238.141 c 474.184 237.695 473.434 237.477 472.516 237.477 c 471.363 237.477
 470.453 237.832 469.777 238.539 c 469.102 239.246 468.766 240.242 468.766
 241.527 c 468.766 242.852 469.102 243.879 469.777 244.613 c 470.461 245.348
 471.348 245.715 472.441 245.715 c 473.5 245.715 474.359 245.355 475.027
 244.641 c 475.695 243.922 476.027 242.91 476.027 241.602 c 476.027 241.527
 476.023 241.41 476.016 241.25 c 470.141 241.25 l 470.191 240.383 470.438
 239.723 470.879 239.266 c 471.32 238.805 471.871 238.578 472.527 238.578
 c 473.012 238.578 473.422 238.703 473.766 238.953 c 474.113 239.211 474.395
 239.621 474.602 240.188 c h
470.215 242.352 m 474.613 242.352 l 474.559 243.008 474.391 243.504 474.113
 243.84 c 473.691 244.355 473.137 244.613 472.453 244.613 c 471.844 244.613
 471.328 244.406 470.902 243.988 c 470.484 243.582 470.258 243.035 470.215
 242.352 c h
481.336 241.152 m 482.688 241.266 l 482.754 240.723 482.902 240.277 483.137
 239.926 c 483.371 239.578 483.734 239.293 484.227 239.078 c 484.727 238.859
 485.281 238.75 485.898 238.75 c 486.449 238.75 486.934 238.836 487.352 
239 c 487.773 239.168 488.09 239.395 488.301 239.676 c 488.508 239.961 488.613
 240.27 488.613 240.602 c 488.613 240.941 488.512 241.238 488.312 241.488
 c 488.113 241.746 487.781 241.965 487.324 242.141 c 487.031 242.254 486.387
 242.43 485.387 242.664 c 484.387 242.906 483.688 243.133 483.289 243.352
 c 482.77 243.625 482.383 243.965 482.125 244.363 c 481.875 244.766 481.75
 245.215 481.75 245.715 c 481.75 246.266 481.902 246.777 482.211 247.25 
c 482.527 247.734 482.984 248.098 483.574 248.34 c 484.176 248.59 484.84
 248.715 485.574 248.715 c 486.383 248.715 487.094 248.586 487.711 248.328
 c 488.328 248.066 488.801 247.684 489.125 247.176 c 489.457 246.676 489.637
 246.105 489.664 245.465 c 488.289 245.363 l 488.211 246.047 487.957 246.562
 487.523 246.914 c 487.102 247.273 486.469 247.453 485.637 247.453 c 484.77
 247.453 484.137 247.289 483.738 246.965 c 483.336 246.648 483.137 246.266
 483.137 245.812 c 483.137 245.422 483.277 245.102 483.562 244.852 c 483.836
 244.602 484.559 244.344 485.727 244.078 c 486.898 243.809 487.703 243.578
 488.137 243.375 c 488.77 243.086 489.238 242.715 489.539 242.266 c 489.844
 241.82 490 241.309 490 240.727 c 490 240.145 489.832 239.594 489.5 239.078
 c 489.168 238.566 488.688 238.172 488.062 237.891 c 487.445 237.605 486.75
 237.465 485.977 237.465 c 484.992 237.465 484.168 237.605 483.5 237.891
 c 482.832 238.18 482.309 238.613 481.926 239.188 c 481.551 239.766 481.355
 240.418 481.336 241.152 c h
496.266 237.652 m 494.93 237.652 l 494.93 246.164 l 494.613 245.855 494.191
 245.547 493.668 245.238 c 493.141 244.938 492.672 244.711 492.254 244.551
 c 492.254 245.852 l 493.004 246.203 493.66 246.625 494.219 247.125 c 494.773
 247.625 495.172 248.109 495.406 248.578 c 496.266 248.578 l h
500.254 237.652 m 500.254 239.176 l 501.781 239.176 l 501.781 237.652 l
 501.781 237.094 501.68 236.645 501.48 236.301 c 501.281 235.953 500.969
 235.684 500.543 235.5 c 500.168 236.078 l 500.449 236.191 500.66 236.371
 500.793 236.613 c 500.926 236.855 501 237.203 501.02 237.652 c h
508.211 247 m 508.211 248.527 l 509.547 248.527 l 509.547 247 l h
508.211 237.652 m 508.211 245.539 l 509.547 245.539 l 509.547 237.652 l
 h
511.516 237.652 m 511.516 245.539 l 512.715 245.539 l 512.715 244.414 l
 513.297 245.281 514.137 245.715 515.227 245.715 c 515.703 245.715 516.141
 245.625 516.539 245.453 c 516.938 245.285 517.234 245.059 517.426 244.777
 c 517.625 244.5 517.77 244.176 517.852 243.801 c 517.902 243.551 517.926
 243.117 517.926 242.5 c 517.926 237.652 l 516.59 237.652 l 516.59 242.453
 l 516.59 242.992 516.535 243.398 516.426 243.664 c 516.328 243.938 516.145
 244.156 515.875 244.312 c 515.609 244.473 515.297 244.551 514.938 244.551
 c 514.371 244.551 513.883 244.371 513.465 244.016 c 513.055 243.656 512.852
 242.969 512.852 241.953 c 512.852 237.652 l h
522.004 237.652 m 519.004 245.539 l 520.414 245.539 l 522.113 240.812 l
 522.297 240.305 522.465 239.777 522.613 239.227 c 522.73 239.645 522.898
 240.145 523.113 240.727 c 524.863 245.539 l 526.238 245.539 l 523.254 237.652
 l h
532.426 238.625 m 531.926 238.203 531.449 237.902 530.988 237.727 c 530.531
 237.559 530.039 237.477 529.516 237.477 c 528.656 237.477 527.992 237.684
 527.527 238.102 c 527.062 238.527 526.828 239.066 526.828 239.727 c 526.828
 240.117 526.914 240.473 527.09 240.789 c 527.266 241.105 527.492 241.359
 527.777 241.551 c 528.062 241.742 528.383 241.891 528.738 241.988 c 529.008
 242.062 529.402 242.129 529.926 242.188 c 531.012 242.32 531.805 242.477
 532.316 242.652 c 532.316 243 l 532.316 243.543 532.191 243.926 531.941
 244.152 c 531.598 244.453 531.09 244.602 530.414 244.602 c 529.789 244.602
 529.328 244.492 529.027 244.277 c 528.727 244.059 528.508 243.668 528.363
 243.102 c 527.051 243.289 l 527.176 243.848 527.375 244.297 527.641 244.641
 c 527.914 244.98 528.305 245.242 528.816 245.426 c 529.332 245.617 529.93
 245.715 530.613 245.715 c 531.289 245.715 531.836 245.633 532.254 245.477
 c 532.668 245.316 532.977 245.117 533.176 244.875 c 533.379 244.633 533.516
 244.332 533.59 243.965 c 533.641 243.738 533.664 243.332 533.664 242.738
 c 533.664 240.953 l 533.664 239.711 533.691 238.922 533.738 238.59 c 533.797
 238.266 533.914 237.953 534.09 237.652 c 532.691 237.652 l 532.547 237.926
 532.461 238.25 532.426 238.625 c h
532.316 241.602 m 531.832 241.41 531.102 241.242 530.129 241.102 c 529.578
 241.027 529.191 240.938 528.965 240.84 c 528.738 240.738 528.566 240.594
 528.441 240.402 c 528.316 240.211 528.254 239.996 528.254 239.766 c 528.254
 239.406 528.387 239.105 528.652 238.863 c 528.926 238.629 529.324 238.516
 529.84 238.516 c 530.355 238.516 530.816 238.625 531.215 238.852 c 531.613
 239.086 531.91 239.395 532.102 239.777 c 532.242 240.086 532.316 240.531
 532.316 241.113 c h
535.555 237.652 m 535.555 248.527 l 536.891 248.527 l 536.891 237.652 l
 h
538.906 247 m 538.906 248.527 l 540.242 248.527 l 540.242 247 l h
538.906 237.652 m 538.906 245.539 l 540.242 245.539 l 540.242 237.652 l
 h
547.32 237.652 m 547.32 238.652 l 546.82 237.867 546.09 237.477 545.121
 237.477 c 544.496 237.477 543.918 237.648 543.383 237.988 c 542.859 238.34
 542.453 238.82 542.16 239.438 c 541.875 240.062 541.734 240.781 541.734
 241.59 c 541.734 242.371 541.863 243.086 542.121 243.727 c 542.391 244.367
 542.781 244.859 543.297 245.203 c 543.82 245.543 544.41 245.715 545.059
 245.715 c 545.535 245.715 545.957 245.613 546.32 245.414 c 546.695 245.215
 547 244.953 547.234 244.625 c 547.234 248.527 l 548.559 248.527 l 548.559
 237.652 l h
543.098 241.59 m 543.098 240.582 543.309 239.828 543.734 239.328 c 544.168
 238.828 544.672 238.578 545.246 238.578 c 545.832 238.578 546.328 238.812
 546.734 239.289 c 547.145 239.766 547.348 240.492 547.348 241.477 c 547.348
 242.551 547.141 243.34 546.723 243.84 c 546.305 244.348 545.793 244.602
 545.184 244.602 c 544.594 244.602 544.098 244.359 543.695 243.875 c 543.297
 243.395 543.098 242.629 543.098 241.59 c h
553.059 234.453 m 552.328 235.383 551.707 236.473 551.199 237.715 c 550.688
 238.965 550.434 240.254 550.434 241.59 c 550.434 242.773 550.621 243.902
 550.996 244.977 c 551.449 246.227 552.137 247.473 553.059 248.715 c 554.023
 248.715 l 553.422 247.688 553.027 246.957 552.836 246.516 c 552.535 245.832
 552.297 245.117 552.121 244.375 c 551.906 243.453 551.797 242.523 551.797
 241.59 c 551.797 239.207 552.539 236.828 554.023 234.453 c h
555.48 234.625 m 555.48 245.539 l 556.707 245.539 l 556.707 244.516 l 556.988
 244.914 557.309 245.215 557.668 245.414 c 558.035 245.613 558.473 245.715
 558.98 245.715 c 559.656 245.715 560.25 245.539 560.77 245.188 c 561.285
 244.848 561.672 244.359 561.93 243.727 c 562.195 243.094 562.332 242.402
 562.332 241.652 c 562.332 240.844 562.184 240.113 561.895 239.465 c 561.602
 238.82 561.18 238.332 560.629 237.988 c 560.082 237.648 559.5 237.477 558.895
 237.477 c 558.441 237.477 558.039 237.566 557.68 237.75 c 557.332 237.941
 557.043 238.18 556.816 238.465 c 556.816 234.625 l h
556.691 241.551 m 556.691 240.535 556.898 239.785 557.305 239.301 c 557.723
 238.816 558.223 238.578 558.805 238.578 c 559.398 238.578 559.902 238.828
 560.316 239.328 c 560.742 239.828 560.957 240.605 560.957 241.664 c 560.957
 242.664 560.746 243.414 560.332 243.914 c 559.922 244.414 559.43 244.664
 558.855 244.664 c 558.289 244.664 557.785 244.398 557.344 243.863 c 556.91
 243.332 556.691 242.559 556.691 241.551 c h
f
563.082 248.465 m 563.293 249.125 l 563.793 248.953 564.156 248.801 564.383
 248.676 c 564.324 249.242 564.289 249.629 564.281 249.84 c 564.969 249.84
 l 564.961 249.531 564.922 249.145 564.855 248.676 c 565.18 248.844 565.551
 248.992 565.969 249.125 c 566.18 248.465 l 565.781 248.332 565.395 248.242
 565.02 248.203 c 565.203 248.035 565.469 247.738 565.82 247.312 c 565.258
 246.914 l 565.074 247.164 564.859 247.5 564.617 247.926 c 564.387 247.484
 564.18 247.148 564.008 246.914 c 563.457 247.312 l 563.812 247.766 564.074
 248.059 564.23 248.203 c 563.832 248.277 563.449 248.363 563.082 248.465
 c h
571.418 243.602 m 571.543 242.863 l 571.301 242.812 571.09 242.789 570.906
 242.789 c 570.598 242.789 570.359 242.836 570.191 242.926 c 570.027 243.027
 569.906 243.156 569.828 243.312 c 569.762 243.473 569.73 243.805 569.73
 244.312 c 569.73 247.176 l 569.117 247.176 l 569.117 247.828 l 569.73 247.828
 l 569.73 249.062 l 570.566 249.562 l 570.566 247.828 l 571.418 247.828 
l 571.418 247.176 l 570.566 247.176 l 570.566 244.266 l 570.566 244.023 
570.578 243.867 570.605 243.801 c 570.637 243.734 570.688 243.68 570.754
 243.641 c 570.82 243.598 570.918 243.578 571.043 243.578 c 571.141 243.578
 571.266 243.586 571.418 243.602 c h
571.809 244.914 m 571.809 245.766 l 574.41 245.766 l 574.41 244.914 l h
578.16 242.852 m 577.324 242.852 l 577.324 248.227 l 577.113 248.035 576.844
 247.84 576.512 247.641 c 576.184 247.445 575.895 247.305 575.637 247.215
 c 575.637 248.027 l 576.102 248.25 576.512 248.52 576.859 248.828 c 577.219
 249.145 577.473 249.453 577.621 249.75 c 578.16 249.75 l h
f
581.598 234.453 m 580.648 234.453 l 582.121 236.828 582.859 239.207 582.859
 241.59 c 582.859 242.516 582.754 243.434 582.547 244.352 c 582.371 245.094
 582.137 245.805 581.836 246.488 c 581.645 246.938 581.246 247.68 580.648
 248.715 c 581.598 248.715 l 582.531 247.473 583.219 246.227 583.66 244.977
 c 584.043 243.902 584.234 242.773 584.234 241.59 c 584.234 240.254 583.977
 238.965 583.461 237.715 c 582.953 236.473 582.332 235.383 581.598 234.453
 c h
f
  Q
Q
Q Q
showpage
%%Trailer
end restore
%%EOF
